<<set $outside to 1>><<effects>>
<<if $stress gte 10000>>
	<<passoutalley>>
<<else>>
	You climb over the fence into the garden behind the orphanage.
	<br><br>
	<<link [[Next|Garden]]>><</link>>
	<br>
<</if>>