<<if $sexstart is 1>>
	<<set $sexstart to 0>>
	<<consensual>>
	<<set $consensual to 1>>
	<<neutral 1>>
	<<maninit>>
	<<set $enemytrust += 100>>
	<<if $phase is 0>>
		<<npcoral>>
	<</if>>
<</if>>
<<effects>>
<<effectsman>><<man>>
<<audience>>
<<stateman>>
<br><br>
<<actionsman>>
<<if $finish is 1>>
	<span id="next"><<link [[Next|Brothel Show Flirt Sex Finish]]>><</link>></span><<nexttext>>
<<elseif $enemyarousal gte $enemyarousalmax>>
	<span id="next"><<link [[Next|Brothel Show Flirt Sex Finish]]>><</link>></span><<nexttext>>
<<elseif $enemyhealth lte 0>>
	<span id="next"><<link [[Next|Brothel Show Flirt Sex Finish]]>><</link>></span><<nexttext>>
<<else>>
	<span id="next"><<link [[Next|Brothel Show Flirt Sex]]>><</link>></span><<nexttext>>
<</if>>