<<if $molestationstart is 1>>
	<<set $molestationstart to 0>>
	<<controlloss>>
	<<violence 1>>
	<<neutral 1>>
	<<molested>>
	<<busmoveinit>>As you try to pass <<he>> grabs your waist and forces you onto <<his>> lap.
	<br>
	<<set $rescue to 1>>
<</if>>
<<effects>>
<<effectsman>><<man>>
<<stateman>>
<br><br>
<<actionsman>>
<<if $alarm is 1>>
	<<if $rescue is 1>>
		<span id="next"><<link [[Next->Bus move Alarm]]>><</link>></span><<nexttext>>
	<<else>>
		No one comes to your aid.
		<<set $alarm to 0>>
		<<if $drugged gte 1>>Intoxicated as you are, you couldn't cry very convincingly.<</if>>
		<br><br>
		<<if $enemyarousal gte $enemyarousalmax>>
			<span id="next"><<link [[Next->Bus move Ejaculation]]>><</link>></span><<nexttext>>
		<<elseif $enemyhealth lte 0>>
			<span id="next"><<link [[Next->Bus move Escape]]>><</link>></span><<nexttext>>
		<<else>>
			<span id="next"><<link [[Next->Bus move]]>><</link>></span><<nexttext>>
		<</if>>
	<</if>>
<<elseif $enemyarousal gte $enemyarousalmax>>
	<span id="next"><<link [[Next->Bus move Ejaculation]]>><</link>></span><<nexttext>>
<<elseif $enemyhealth lte 0>>
	<span id="next"><<link [[Next->Bus move Escape]]>><</link>></span><<nexttext>>
<<else>>
	<span id="next"><<link [[Next->Bus move]]>><</link>></span><<nexttext>>
<</if>>