<<if $molestationstart is 1>>
	<<set $molestationstart to 0>>
	<<controlloss>>
	<<violence 1>>
	<<neutral 1>>
	<<molested>>
	<<maninit>>
	<<set $enemyanger += 40>>
	<<set $enemytrust -= 40>>
<</if>>
<<effects>>
<<effectsman>><<man>>
<<audience>>
<<stateman>>
<br><br>
<<actionsman>>
<<if $enemyarousal gte $enemyarousalmax>>
	<span id="next"><<link [[Next|Bus Seat Rape Finish]]>><</link>></span><<nexttext>>
<<elseif $enemyhealth lte 0>>
	<span id="next"><<link [[Next|Bus Seat Rape Finish]]>><</link>></span><<nexttext>>
<<else>>
	<span id="next"><<link [[Next|Bus Seat Rape]]>><</link>></span><<nexttext>>
<</if>>