<<set $outside to 0>><<set $location to "town">><<effects>><<set $bus to "danube">>

"Where did you learn your manners?" <<he>> asks. "Just take your money and begone." <<He>> hands you £15.
<br><br>

<<set $money += 1500>>
<<endevent>>

<<link [[Next|Danube Street]]>><</link>>
<br>