<<set $outside to 0>><<set $location to "town">><<effects>><<set $bus to "domus">>
<<if $phase is 0>>
	<<He>> holds up <<his>> hands. "I can't serve you alcohol. Is there anything else?"
	<br>
	You shake your head.
	<br>
	"Have a nice day."
	<br>
	You leave.
	<br><br>
	<<link [[Next|Domus Errand End]]>><<set $phase to 0>><</link>>
	<br>
<<elseif $phase is 1>>
	No one else is around, so you agree to expose your <<if $player.gender is "m">>chest.<<else>>breasts.<</if>>
	<<if $breastsize lte 2>>
		<<He>> reaches out a hand and gently squeezes your <<breastsstop>>
		<br>
		"Sorry, these are..." <<he>> says. "I can't serve you alcohol without ID."
		<<insecurity "breasts_small" 1>><<ginsecurity "breasts_small">>
		<br>
		You cover up.
		<br>
		"Consider it a good thing. Is there anything else?"
		<br>
		You shake your head.
		<br>
		"Have a nice day."
		<br>
		You leave.
		<br><br>
		<<link [[Next|Domus Errand End]]>><<set $phase to 0>><</link>>
		<br>
	<<else>>
		<<He>> reaches out both hands and gently gropes your chest.
		<<garousal>><<arousal 100>>
		<br>
		"Hmm," <<he>> says. "I can accept this as proof of age."
		<br>
		<<He>> gropes you for a moment longer, then turns to collect the drinks.
		<br>
		You cover up.
		<br>
		<<He>> passes over a large crate of beers. "Have a nice day."
		<br><br>
		<<link [[Next|Domus Errand End]]>><<set $phase to 1>><</link>>
		<br>
	<</if>>
<<elseif $phase is 2>>
	No one is around, so you approach the counter and let <<him>> slip a hand inside your <<if $worn.genitals.type.includes("chastity")>>$worn.genitals.name.<<else>><<crotchstop>><</if>>
	<br>
	<<if $penisexist is 1>>You feel a hand wrap around your penis.
	<br>
		<<if $penissize lte 1>>
			Suddenly <<he>> laughs.
			<br>
			"Is that..? Uh, sorry, no," <<he>> smiles. "I can't accept that as proof."
			<<insecurity "penis_small" 1>><<ginsecurity "penis_small">>
			<br>
			<<He>> removes <<his>> hand.
			<br>
			"Is there anything else?" <<he>> smirks.
			<br>
			You shake your head.
			<br>
			"Have a nice day."
			<br>
			You leave.
			<br><br>
			<<link [[Next|Domus Errand End]]>><<set $phase to 0>><</link>>
			<br>
		<<else>>
			<<if $penissize gte 3>>
				"Wow!" <<he>> glances at you. "You are packing."
				<br>
				<<He>> gives it a rub.
				<<garousal>><<arousal 100>>
				<br>
			<</if>>
			"Okay," <<he>> says. "I can accept this as proof of age."
			<br>
			<<He>> gropes you for a moment, then withdraws <<his>> hand.
			<br>
			<<He>> passes over a large crate of beers. "Have a nice day."
			<br><br>
			<<link [[Next|Domus Errand End]]>><<set $phase to 1>><</link>>
			<br>
		<</if>>
	<<else>>You feel a hand brush against your pussy.
	<br>
		<<if $rng % 2>>
			"A vagina," <<He>> smiles. "I thought I might find one of these."
			<br>
			<<He>> rubs <<his>> fingers around your clit.
			<<garousal>><<arousal 100>>
			<br>
			"Don't worry, I won't tell anyone," <<he>> says, still rubbing. "Lots of perverts here."
			<br>
			<<He>> slips a finger inside your pussy. "So many perverts."
			<<garousal>><<arousal 100>>
			<br>
			<<He>> withdraws <<his>> hand. "You can't be too careful."
			<br><br>
			<<He>> grabs a large crate of beers and hands them over. "Have a nice day."
			<br><br>
			<<link [[Next|Domus Errand End]]>><<set $phase to 1>><</link>>
			<br>
		<<else>>
			<<He>> snatches out <<his>> hand as if bitten.
			<br>
			"Pervert," <<his>> face flushes red. "Do you think that was funny?!"
			<br>
			You step back.
			<br>
			"Play jokes on the silly shopkeeper, huh? Get out of my stop," <<he>> shouts. "Out."
			<br><br>
			You leave.
			<br><br>
			<<link [[Next|Domus Errand End]]>><<set $phase to 0>><</link>>
			<br>
		<</if>>
	<</if>>
<<else>>
The shopkeeper spontaneously breaks into song. Unsure what to do, you awkwardly back away. (This is an error, please report).
<<link [[Next|Domus Errand End]]>><<set $phase to 0>><</link>>
<br>
<</if>>