<<set $dangerhome to 0>>
<<set $safehome to 0>>
You've pushed yourself too much.
<br><br>
<<passout>>

<<set $danger to random(1, 10000)>>

<<if $danger gte (9900 - $allure)>><<set $dangerhome to random(1, 100)>><</if>>

<<if $danger lt (9900 - $allure)>><<set $safehome to random(1, 100)>><</if>>

<<if $dangerhome gte 80>><<link [[Wake up|Sold]]>><</link>>
<<elseif $dangerhome gte 1>><<link [[Wake up|Molestation]]>><<set $phase to 0>><<set $molestationstart to 1>><</link>>
<</if>>

<<if $safehome gte 1>>[[Sleep|Bailey Rescue]]
<</if>>

<<pass 1 hour>>
<<set $stress -= 2000>>
<<set $trauma +=10>>