<<if $sexstart is 1>>
<<set $sexstart to 0>>
<<consensual>>
<<set $consensual to 1>>
<<neutral 1>>

<<maninit>>
<<promiscuity1>>

<<elseif $molestationstart is 1>>
<<set $molestationstart to 0>>
<<controlloss>>
<<violence 1>>
<<neutral 1>>
<<molested>>

<<maninit>>

	<<if $phase lte 0>>
	"No <<bitchcomma>> this is happening. I didn't walk out here for fresh air." <<He>> grabs you.
	<br><br>
	<</if>>
<</if>>

<<effects>>
<<effectsman>><<man>>

<<stateman>>
<br><br>
<<actionsman>>

<<if $enemyarousal lt $enemyarousalmax and $enemyhealth gt 0 and $finish isnot 1>>
	<span id="next"><<link [[Next|Pub Sex 4]]>><</link>></span><<nexttext>>
<<else>>
	<span id="next"><<link [[Next|Pub Sex 4 Finish]]>><</link>></span><<nexttext>>
<</if>>