<<set $outside to 0>><<set $location to "school">><<schooleffects>><<effects>>

You take a seat and read a history textbook.
<br><br>

<<npc Winter>><<person1>>The classroom soon fills and Winter arrives to begin the lesson.
<br><br>

<<if $worn.upper.type.includes("school") and $worn.lower.type.includes("school") and $rightarm isnot "bound" and $leftarm isnot "bound" and $feetuse isnot "bound">>
	<<link [[Next|History Lesson]]>><<endevent>><</link>>
	<br>
<<elseif $rightarm is "bound" or $leftarm is "bound" or $feetuse is "bound">>
	Winter looks at your bound limbs. "Whatever that's about you need to sort it out before you start my class. Go see the head."
	<br><br>

	<<link [[Next|Hallways]]>><<endevent>><</link>>
	<br><br>
<<else>>
	Winter looks at your clothing. "You can't have believed I wouldn't notice. Go see the head."
	<br><br>

	<<link [[Next|Hallways]]>><<endevent>><</link>>
	<br><br>
<</if>>

<<pass 5>><<stress 1>><<historyskill>>
<<schooleffects>>
<<if $schoolstate is "fourth">>
	<<set $studyfinish to 1>>
<<else>>
	<<set $studyfinish to 0>>
<</if>>
<<if $studyfinish isnot 1>>
	<<pass 5>><<stress 1>>
	<<schooleffects>>
	<<if $schoolstate is "fourth">>
		<<set $studyfinish to 1>>
	<<else>>
		<<set $studyfinish to 0>>
	<</if>>
<</if>>
<<if $studyfinish isnot 1>>
	<<pass 5>><<stress 1>>
	<<schooleffects>>
	<<if $schoolstate is "fourth">>
		<<set $studyfinish to 1>>
	<<else>>
		<<set $studyfinish to 0>>
	<</if>>
<</if>>
<<if $studyfinish isnot 1>>
	<<pass 5>><<stress 1>>
	<<schooleffects>>
	<<if $schoolstate is "fourth">>
		<<set $studyfinish to 1>>
	<<else>>
		<<set $studyfinish to 0>>
	<</if>>
<</if>>
<<if $studyfinish isnot 1>>
	<<pass 5>><<stress 1>>
	<<schooleffects>>
	<<if $schoolstate is "fourth">>
		<<set $studyfinish to 1>>
	<<else>>
		<<set $studyfinish to 0>>
	<</if>>
<</if>>
<<if $studyfinish isnot 1>>
	<<pass 5>><<stress 1>>
	<<schooleffects>>
	<<if $schoolstate is "fourth">>
		<<set $studyfinish to 1>>
	<<else>>
		<<set $studyfinish to 0>>
	<</if>>
<</if>>
<<if $studyfinish isnot 1>>
	<<pass 5>><<stress 1>>
	<<schooleffects>>
	<<if $schoolstate is "fourth">>
		<<set $studyfinish to 1>>
	<<else>>
		<<set $studyfinish to 0>>
	<</if>>
<</if>>
<<if $studyfinish isnot 1>>
	<<pass 5>><<stress 1>>
	<<schooleffects>>
	<<if $schoolstate is "fourth">>
		<<set $studyfinish to 1>>
	<<else>>
		<<set $studyfinish to 0>>
	<</if>>
<</if>>
<<if $studyfinish isnot 1>>
	<<pass 5>><<stress 1>>
	<<schooleffects>>
	<<if $schoolstate is "fourth">>
		<<set $studyfinish to 1>>
	<<else>>
		<<set $studyfinish to 0>>
	<</if>>
<</if>>
<<if $studyfinish isnot 1>>
	<<pass 5>><<stress 1>>
	<<schooleffects>>
	<<if $schoolstate is "fourth">>
		<<set $studyfinish to 1>>
	<<else>>
		<<set $studyfinish to 0>>
	<</if>>
<</if>>
<<if $studyfinish isnot 1>>
	<<pass 5>><<stress 1>>
	<<schooleffects>>
	<<if $schoolstate is "fourth">>
		<<set $studyfinish to 1>>
	<<else>>
		<<set $studyfinish to 0>>
	<</if>>
<</if>>
<<if $studyfinish isnot 1>>
	<<pass 5>><<stress 1>>
	<<schooleffects>>
	<<if $schoolstate is "fourth">>
		<<set $studyfinish to 1>>
	<<else>>
		<<set $studyfinish to 0>>
	<</if>>
<</if>>
<<if $studyfinish isnot 1>>
	<<pass 5>><<stress 1>>
	<<schooleffects>>
	<<if $schoolstate is "fourth">>
		<<set $studyfinish to 1>>
	<<else>>
		<<set $studyfinish to 0>>
	<</if>>
<</if>>
<<if $studyfinish isnot 1>>
	<<pass 5>><<stress 1>>
	<<schooleffects>>
	<<if $schoolstate is "fourth">>
		<<set $studyfinish to 1>>
	<<else>>
		<<set $studyfinish to 0>>
	<</if>>
<</if>>
<<if $studyfinish isnot 1>>
	<<pass 5>><<stress 1>>
	<<schooleffects>>
	<<if $schoolstate is "fourth">>
		<<set $studyfinish to 1>>
	<<else>>
		<<set $studyfinish to 0>>
	<</if>>
<</if>>
<<if $studyfinish isnot 1>>
	<<pass 5>><<stress 1>>
	<<schooleffects>>
	<<if $schoolstate is "fourth">>
		<<set $studyfinish to 1>>
	<<else>>
		<<set $studyfinish to 0>>
	<</if>>
<</if>>
<<if $studyfinish isnot 1>>
	<<pass 5>><<stress 1>>
	<<schooleffects>>
	<<if $schoolstate is "fourth">>
		<<set $studyfinish to 1>>
	<<else>>
		<<set $studyfinish to 0>>
	<</if>>
<</if>>
<<if $studyfinish isnot 1>>
	<<pass 5>><<stress 1>>
	<<schooleffects>>
	<<if $schoolstate is "fourth">>
		<<set $studyfinish to 1>>
	<<else>>
		<<set $studyfinish to 0>>
	<</if>>
<</if>>
<<if $studyfinish isnot 1>>
	<<pass 5>><<stress 1>>
	<<schooleffects>>
	<<if $schoolstate is "fourth">>
		<<set $studyfinish to 1>>
	<<else>>
		<<set $studyfinish to 0>>
	<</if>>
<</if>>
<<if $studyfinish isnot 1>>
	<<pass 5>><<stress 1>>
	<<schooleffects>>
	<<if $schoolstate is "fourth">>
		<<set $studyfinish to 1>>
	<<else>>
		<<set $studyfinish to 0>>
	<</if>>
<</if>>
<<if $studyfinish isnot 1>>
	<<pass 5>><<stress 1>>
	<<schooleffects>>
	<<if $schoolstate is "fourth">>
		<<set $studyfinish to 1>>
	<<else>>
		<<set $studyfinish to 0>>
	<</if>>
<</if>>
<<if $studyfinish isnot 1>>
	<<pass 5>><<stress 1>>
	<<schooleffects>>
	<<if $schoolstate is "fourth">>
		<<set $studyfinish to 1>>
	<<else>>
		<<set $studyfinish to 0>>
	<</if>>
<</if>>
<<if $studyfinish isnot 1>>
	<<pass 5>><<stress 1>>
	<<schooleffects>>
	<<if $schoolstate is "fourth">>
		<<set $studyfinish to 1>>
	<<else>>
		<<set $studyfinish to 0>>
	<</if>>
<</if>>
<<if $studyfinish isnot 1>>
	<<pass 5>><<stress 1>>
	<<schooleffects>>
	<<if $schoolstate is "fourth">>
		<<set $studyfinish to 1>>
	<<else>>
		<<set $studyfinish to 0>>
	<</if>>
<</if>>