<<if $molestationstart is 1>>
	<<set $molestationstart to 0>>
	<<controlloss>>
	<<violence 1>>
	<<neutral 1>>
	<<molested>>
	<<maninit>>
	<<if $daystate isnot "night" and $location is "beach">>
		<<set $rescue to 1>>
	<</if>>
	<<if $phase isnot 1>>
		You try to pull away, but <<he>> won't let you!
		<br><br>
	<<else>>
		<<set $NPCList[0].lefthand to "arms">>
		<<set $leftarm to "grappled">>
		<<set $rightarm to "grappled">>
		<<hand_gag 0 right>>
	<</if>>
<<elseif $sexstart is 1>>
	<<set $sexstart to 0>>
	<<promiscuity1>>
	<<set $consensual to 1>>
	<<neutral 1>>
	<<maninit>>
	<<set $enemytrust += 100>>
	<<if $daystate isnot "night" and $location is "beach">>
		<<set $rescue to 1>>
	<</if>>
<</if>>
<<effects>>
<<effectsman>><<man>>
<<stateman>>
<br><br>
<<actionsman>>
<<if $enemyarousal gte $enemyarousalmax>>
	<span id="next"><<link [[Next|Sea Beach Molestation Finish]]>><</link>></span><<nexttext>>
<<elseif $finish is 1>>
	<span id="next"><<link [[Next|Sea Beach Molestation Finish]]>><</link>></span><<nexttext>>
<<elseif $enemyhealth lte 0>>
	<span id="next"><<link [[Next|Sea Beach Molestation Finish]]>><</link>></span><<nexttext>>
<<elseif $alarm is 1 and $rescue is 1>>
	<span id="next"><<link [[Next|Sea Beach Molestation Finish]]>><</link>></span><<nexttext>>
<<else>>
	<span id="next"><<link [[Next|Sea Beach Molestation]]>><</link>></span><<nexttext>>
<</if>>