<<widget "seadocks">><<nobr>>

<<link [[Swim to the docks (0:10)|Sea Docks]]>><<pass 10>><<tiredness 2>><</link>><<gtiredness>>

<</nobr>><</widget>>

<<widget "seadocksquick">><<nobr>>

<<link [[Swim to the docks|Sea Docks]]>><</link>>

<</nobr>><</widget>>

<<widget "seadockseventend">><<nobr>>

<<link [[Next|Sea Docks]]>><<set $eventskip to 1>><</link>>

<</nobr>><</widget>>