<<widget "searocks">><<nobr>>

<<link [[Swim to the rocks (0:10)|Sea Rocks]]>><<pass 10>><<tiredness 2>><</link>><<gtiredness>>

<</nobr>><</widget>>

<<widget "searocksquick">><<nobr>>

<<link [[Swim to the rocks|Sea Rocks]]>><</link>>

<</nobr>><</widget>>

<<widget "searockseventend">><<nobr>>

<<link [[Next|Sea Rocks]]>><<set $eventskip to 1>><</link>>

<</nobr>><</widget>>