<<effects>>

<<if $submissive gte 1150>>
	"O-Okay," you say. "You can show me."
<<elseif $submissive lte 850>>
	"Sure," you say. "I'll take a look."
<<else>>
	"Okay," You say. "You can show me."
<</if>>
<br><br>

The <<person>> hesitates, then unfolds <<his>> gown, revealing <<his>>
<<if $pronoun is "m">>
	<<if $NPCList[0].penis isnot "none">>
		<<print $NPCList[0].penisdesc>>.
	<<else>>
		pussy.
	<</if>>
<<else>>
	<<if $NPCList[0].penis isnot "none">>
		<<print $NPCList[0].breastsdesc>> and <<print $NPCList[0].penisdesc>>.
	<<else>>
		<<print $NPCList[0].breastsdesc>>.
	<</if>>
<</if>>

<<He>> shuts <<his>> eyes and stands there, hands clutching <<his>> sides. <<He>> counts under <<his>> breath.
<br><br>

With a sigh, <<he>> bends over and retrieves <<his>> grown, wrapping it around <<him>> with haste. "Th-thank you," <<he>> says before hurrying away.
<br><br>

<<endevent>>

<<link [[Next|Asylum]]>><</link>>
<br>