<<if $sexstart is 1>>
<<set $sexstart to 0>>
<<consensual>>
<<set $consensual to 1>>
<<neutral 1>>

<<maninit>>
<<set $enemytrust += 100>><<set $enemyhealth to 600>><<set $enemyhealthmax to 600>>

<</if>>

<<effects>>
<<effectsman>><<man>>

<<stateman>>
<br><br>
<<actionsman>>

<<if $finish is 1>>
	<span id="next"><<link [[Next|Eden Bath Sex Finish]]>><</link>></span><<nexttext>>
<<elseif $enemyhealth lte 0>>
	<span id="next"><<link [[Next|Eden Bath Sex Finish]]>><</link>></span><<nexttext>>
<<elseif $enemyarousal gte $enemyarousalmax>>
	<span id="next"><<link [[Next|Eden Bath Sex Finish]]>><</link>></span><<nexttext>>
<<else>>
	<span id="next"><<link [[Next|Eden Bath Sex]]>><</link>></span><<nexttext>>
<</if>>