<<widget "harvest">><<nobr>>

<<add_link "<<harvesticon>><<link [[Harvest Street (0:05) (Pub)|Harvest Street]]>><<pass 5>><</link>><br>">>
<<hideDisplay true>>
<</nobr>><</widget>>

<<widget "harvestquick">><<nobr>>

<<link [[Harvest Street|Harvest Street]]>><</link>>

<</nobr>><</widget>>

<<widget "harvesteventend">><<nobr>>

<<link [[Next|Harvest Street]]>><<set $eventskip to 1>><</link>>

<</nobr>><</widget>>