You've pushed yourself too much.
<br><br>
<<passout>>
<<set $danger to random(1, 10000)>>
<<if $danger gte (9900 - $allure)>>
	<<if $rng gte 51>>
		<<if $bestialitydisable is "f">>
			<<link [[Wake up|Passout Beast Drain]]>><<set $molestationstart to 1>><</link>>
		<<else>>
			<<link [[Wake up|Passout Drain Abduction]]>><<set $molestationstart to 1>><</link>>
		<</if>>
	<<elseif $rng gte 1>>
		<<link [[Wake up|Passout Drain Abduction]]>><<set $molestationstart to 1>><</link>>
	<</if>>
<<else>>
	<<ambulance>>
<</if>>
<<pass 1 hour>>
<<set $trauma +=10>><<set $stress -= 2000>>