<<if $fightstart is 1>>
	<<set $fightstart to 0>>
	<<neutral 1>>
	<<maninit>>
	<<set $enemytrust -= 100>>
	<<set $enemyanger += 200>>
	<<set $enemyhealthmax += 100>><<set $enemyhealth += 100>><<set $enemyarousalmax += 100>>
	<<npcidlegenitals>>
	"Don't you dare," Morgan snarls. "Your bottom will be red when I'm done."
<</if>>
<<effects>>
<<effectsman>><<man>>
<<stateman>>
<br><br>
<<actionsman>>
<<if $enemyhealth lte 0>>
	<span id="next"><<link [[Next|Sewers Fight Finish]]>><</link>></span><<nexttext>>
<<elseif $enemyarousal gte $enemyarousalmax>>
	<span id="next"><<link [[Next|Sewers Fight Finish]]>><</link>></span><<nexttext>>
<<elseif $pain gte 100 and $willpowerpain is 0>>
	<span id="next"><<link [[Next|Sewers Fight Finish]]>><</link>></span><<nexttext>>
<<else>>
	<span id="next"><<link [[Next|Sewers Fight]]>><</link>></span><<nexttext>>
<</if>>