<<if $molestationstart is 1>>
	<<set $molestationstart to 0>>
	<<controlloss>>
	<<violence 1>>
	<<neutral 1>>
	<<molested>>

	<<maninit>>

	<<set $enemyanger += 150>>
	<<set $enemytrust -= 200>>

<</if>>

<<effects>>

<<effectsman>><<man>>

<<stateman>>
<br><br>
<<actionsman>>

<<if $enemyhealth lte 0>>
	<span id="next"><<link [[Next|Smuggler Rape Finish]]>><</link>></span><<nexttext>>
<<elseif $enemyarousal gte $enemyarousalmax>>
	<span id="next"><<link [[Next|Smuggler Rape Finish]]>><</link>></span><<nexttext>>
<<else>>
	<span id="next"><<link [[Next|Smuggler Rape]]>><</link>></span><<nexttext>>
<</if>>