<<if $sexstart is 1>>
	<<set $sexstart to 0>>
	<<consensual>>
	<<set $consensual to 1>>
	<<neutral 1>>

	<<beastTrainGenerate 1 "wolf">>
	<<beastNEWinit 1 wolf>>
	<<set $NPCList[0].stance to "top">><<set $enemytrust -= 20>><<deviancy3>>
<</if>>

<<effects>>
<<effectsman>>
<br>
<<beast $enemyno>>
<br><br>

<<stateman>>
<br><br>
<<actionsman>>

<<if $finish is 1>>
	<span id="next"><<link [[Next|Forest Wolf Sex2 Finish]]>><</link>></span><<nexttext>>
<<elseif $enemyarousal gte $enemyarousalmax>>
	<span id="next"><<link [[Next|Forest Wolf Sex2 Finish]]>><</link>></span><<nexttext>>
<<elseif $enemyhealth lte 0>>
	<span id="next"><<link [[Next|Forest Wolf Sex2 Finish]]>><</link>></span><<nexttext>>
<<else>>
	<span id="next"><<link [[Next|Forest Wolf Sex2]]>><</link>></span><<nexttext>>
<</if>>