<<if $molestationstart is 1>>
	<<set $molestationstart to 0>>
	<<controlloss>>
	<<violence 1>>
	<<neutral 1>>
	<<molested>>

	<<beastTrainGenerate 2 "wolf">>
	<<beastNEWinit 1 wolf>>
	<<set $rescue to 1>>/*optional*/
<</if>>
<<effects>>
<<effectsman>>
<br>
<<beast $enemyno>>
<br><br>
<<stateman>>
<br><br>
<<actionsman>>
<<if $alarm is 1 and $rescue is 1>>
	<span id="next"><<link [[Next|Beast Gang End]]>><</link>></span><<nexttext>>
<<elseif $enemyarousal gte $enemyarousalmax>>
	<span id="next"><<link [[Next|Beast Gang End]]>><</link>></span><<nexttext>>
<<elseif $enemyhealth lte 0>>
	<span id="next"><<link [[Next|Beast Gang End]]>><</link>></span><<nexttext>>
<<else>>
	<span id="next"><<link [[Next|Beast Gang]]>><</link>></span><<nexttext>>
<</if>>