<<if $molestationstart is 1>>
	<<set $molestationstart to 0>>
	<<controlloss>>
	<<violence 1>>
	<<neutral 1>>
	<<molested>>

	<<maninit>>
<<elseif $sexstart is 1>>
	<<set $sexstart to 0>>
	<<consensual>>
	<<set $consensual to 1>>
	<<neutral 1>>

	<<maninit>>
<</if>>

<<effects>>

<<effectsman>><<man>>

<<stateman>>
<br><br>
<<actionsman>>

<<if $enemyhealth lte 0>>
	<span id="next"><<link [[Next|Forest Slime Rape Finish]]>><</link>></span><<nexttext>>
<<elseif $enemyarousal gte $enemyarousalmax>>
	<span id="next"><<link [[Next|Forest Slime Rape Finish]]>><</link>></span><<nexttext>>
<<else>>
	<span id="next"><<link [[Next|Forest Slime Rape]]>><</link>></span><<nexttext>>
<</if>>