<<if $sexstart is 1>>
	<<set $sexstart to 0>>
	<<consensual>>
	<<set $consensual to 1>>
	<<neutral 1>>
	<<maninit>>
	<<set $enemytrust += 100>>
	<<promiscuity2>>
<</if>>
<<if $molestationstart is 1>>
	<<set $molestationstart to 0>>
	<<set $consensual to 0>>
	<<neutral 1>>

	<<controlloss>>
	<<molested>>
	<<maninit>>
	<<hand_gag 0 left>>
<</if>>
<<effects>>
<<effectsman>><<man>>
<<stateman>>
<br><br>
<<actionsman>>
<<if $finish is 1>>
	<span id="next"><<link [[Next|Lake Hang Sex Finish]]>><</link>></span><<nexttext>>
<<elseif $enemyarousal gte $enemyarousalmax>>
	<span id="next"><<link [[Next|Lake Hang Sex Finish]]>><</link>></span><<nexttext>>
<<elseif $enemyhealth lte 0>>
	<span id="next"><<link [[Next|Lake Hang Sex Finish]]>><</link>></span><<nexttext>>
<<else>>
	<span id="next"><<link [[Next|Lake Hang Sex]]>><</link>></span><<nexttext>>
<</if>>