<<widget "ejaculation-leighton">><<nobr>>
<<set $ejaculating to 1>>

<<if $sexavoid is 0 or $rapeavoid is 0>>
	<<if $consensual is 1>>
		<<famesex 1>>
	<<else>>
		<<famerape 1>>
	<</if>>
<</if>>
<<if $exposed is 1>>
	<<fameexhibitionism 1>>
<<elseif $exposed gte 2>>
	<<fameexhibitionism 2>>
<</if>>

<<if $NPCList[0].pronoun is "m">>
	<<set $pronoun to "m">>
<</if>>
<<if $NPCList[0].pronoun is "f">>
	<<set $pronoun to "f">>
<</if>>
<<if $NPCList[0].pronoun is "i">>
	<<set $pronoun to "i">>
<</if>>
<<if $NPCList[0].pronoun is "n">>
	<<set $pronoun to "n">>
<</if>>
<<if $NPCList[0].pronoun is "t">>
	<<set $pronoun to "t">>
<</if>>

<<if $enemytype is "man">>
	<<set $NPCList[0].intro to 1>>
<<else>>
	<<set $pronoun to "i">>
<</if>>

<!-- Female LEIGHTON -->
<<if $NPCList[0].vagina isnot "none" and $NPCList[0].penis is "none">>
	<<if $consensual is 1>>
		<<if $NPCList[0].vagina is "mouthentrance" or $NPCList[0].vagina is "mouth" or $NPCList[0].vagina is "mouthimminent">>
			<<switch random(1, 4)>>
			<<case 1 2>>
				<<He>> groans and rubs <<his>> crotch against your face with <<his>> hips, thighs shaking with orgasm.
				<br><br>
			<<case 3 4>>
				<<He>> goes red in the face and neck, mouth agape as <<he>> cums silently, body twitching uncontrollably.
				<br><br>
			<<case 5>>
				<<He>> cups your head in <<his>> hand and grinds <<his>> clit against your nose, covering your face in ejaculate.
				<br><br>
				<<faceejacstat>><<ejacstat>><<set $hygiene += 500>><<set $facegoo += 1>>
			<</switch>>
		<<elseif $NPCList[0].vagina is "leftarm">>
			<<switch random(1, 5)>>
			<<case 1 2>>
				<<He>> sighs as you finish with <<his>> pussy, shaking <<his>> thighs together against your hand as <<his>> body convulses.
				<br><br>
				<<handejacstat>><<ejacstat>><<set $hygiene += 500>><<set $leftarmgoo += 1>>
			<<case 3 4>>
				<<He>> goes red in the face and neck, mouth agape as <<he>> cums silently, cunt twitching against your hand uncontrollably.
				<br><br>
				<<handejacstat>><<ejacstat>><<set $hygiene += 500>><<set $leftarmgoo += 1>>
			<<case 5>>
				<<He>> stifles a moan, grabbing your hand and fucking <<his>> pussy with your fingers. Your fingers are soaked in ejaculate.
				<br><br>
				<<handejacstat>><<ejacstat>><<set $hygiene += 500>><<set $leftarmgoo += 1>>
			<</switch>>
		<<elseif $NPCList[0].vagina is "rightarm">>
			<<switch random(1, 5)>>
			<<case 1 2>>
				<<He>> sighs as you finish with <<his>> pussy, knees shaking as <<his>> body convulses.
				<br><br>
				<<handejacstat>><<ejacstat>><<set $hygiene += 500>><<set $rightarmgoo += 1>>
			<<case 3 4>>
				<<He>> goes red in the face and neck, mouth agape as <<he>> cums silently, cunt twitching against your hand uncontrollably.
				<br><br>
				<<handejacstat>><<ejacstat>><<set $hygiene += 500>><<set $rightarmgoo += 1>>
			<<case 5>>
				<<He>> stifles a moan, grabbing your hand and fucking <<his>> pussy with your fingers. Your fingers are soaked in ejaculate.
				<br><br>
				<<handejacstat>><<ejacstat>><<set $hygiene += 500>><<set $rightarmgoo += 1>>
			<</switch>>
		<<elseif $NPCList[0].vagina is "lefthand" or $NPCList[0].vagina is "righthand">>
			<<switch random(1, 5)>>
			<<case 1 2>>
				<<He>> sighs as <<he>> cums, releasing you and pulling back <<his>> hand, licking your wetness off <<his>> fingers.
				<br><br>
			<<case 3 4>>
				<<He>> moans loudly and shakes, dripping ejaculate on the ground; <<he>> withdraws <<his>> hand and sighs.
				<br><br>
			<<case 5>>
				<<He>> shakes as <<he>> comes, soaking <<his>> own pussy and thighs in ejaculate; <<he>> removes <<his>> hand from your pussy and wipes it off on your face, chuckling.
				<br><br>
				<<faceejacstat>><<ejacstat>><<set $hygiene += 500>><<set $facegoo += 1>>
			<</switch>>
		<<elseif $NPCList[0].vagina is "feet">>
			<<switch random(1, 5)>>
			<<case 1 2>>
				<<He>> moans as you knead <<his>> pussy, jamming your toes inside with <<his>> hands as <<he>> finishes cumming.
				<br><br>
				<<feetejacstat>><<ejacstat>><<set $hygiene += 500>><<set $feetgoo += 1>>
			<<case 3 4>>
				<<He>> shakes bodily as <<he>> cums, twitching underneath your feet and cumming between your toes.
				<br><br>
				<<feetejacstat>><<ejacstat>><<set $hygiene += 500>><<set $feetgoo += 1>>
			<<case 5>>
				<<He>> tenses as <<he>> comes, soaking your feet with ejaculate. You jump back in surprise, nearly slipping on your wet feet.
				<br><br>
				<<feetejacstat>><<ejacstat>><<set $hygiene += 500>><<set $feetgoo += 1>>
			<</switch>>
		<<elseif $NPCList[0].vagina is "vagina" and $worn.genitals.type.includes("chastity")>>
			<<He>> tenses as <<he>> cums, ejaculating over your $worn.genitals.name. "Whoever put you in that had the right idea," <<he>> gasps. "If only I had a key."
			<br><br>
		<<elseif $NPCList[0].vagina is "vagina">>
			<<switch random(1, 5)>>
			<<case 1 2>>
				<<He>> cums as you scissor your pussies together, moaning with pleasure.
				<br><br>
			<<case 3 4>>
				<<He>> moans as <<he>> grinds downs hard on your <<pussy>> to finish, legs shaking as <<he>> cums.
				<br><br>
			<<case 5>>
				<<He>> cups <<his>> arms under your shoulders as <<his>> entire body shakes. Ejaculate streams from <<his>> pussy, drenching you.
				<br><br>
				<<vaginalentranceejacstat>><<ejacstat>><<set $hygiene += 500>><<set $vaginaoutsidegoo += 1>>
			<</switch>>
		<<elseif $NPCList[0].vagina is "othermouth" and $worn.genitals.type.includes("chastity")>>
			<<He>> tenses as <<he>> cums, ejaculating over your $worn.genitals.name. "Whoever put you in that had the right idea," <<he>> gasps. "If only I had a key."
			<br><br>
		<<elseif $NPCList[0].vagina is "othermouth">>
			<<switch random(1, 5)>>
			<<case 1 2>>
				<<He>> shudders with pleasure, exhaling warmly against your crotch as <<he>> comes, leaving you wet with saliva and your own fluids.
				<br><br>
				<<vaginalentranceejacstat>><<ejacstat>><<set $hygiene += 500>><<set $vaginaoutsidegoo += 1>>
			<<case 3 4>>
				<<He>> quietly ejaculates, shaking as <<he>> grinds <<his>> nose into your crotch and giving you a long, final, wet lick.
				<br><br>
				<<vaginalentranceejacstat>><<ejacstat>><<set $hygiene += 500>><<set $vaginaoutsidegoo += 1>>
			<<case 5>>
				<<He>> sighs into your crotch as <<he>> cums, pinching <<his>> hands between <<his>> thighs and buckling over, ejaculate streaming down <<his>> thighs.
				<br><br>
			<</switch>>
		<!-- following appear to be Male PC to Female Antagonist only? -->
		<<elseif $NPCList[0].vagina is "otheranus" and $worn.genitals.type.includes("chastity")>>
			<<He>> tenses as <<he>> cums, ejaculating over your $worn.genitals.name. "Whoever put you in that had the right idea," <<he>> gasps. "If only I had a key."
			<br><br>
		<<elseif $NPCList[0].vagina is "otheranus">>
			<<switch random(1, 5)>>
			<<case 1 2>>
				<<He>> shakes as <<he>> cums, driving <<his>> ass hard against you as <<he>> releases a final moan.
				<br><br>
			<<case 3 4>>
				<<He>> quietly ejaculates, shaking as <<he>> grinds <<his>> ass deeply with your cock and moaning.
				<br><br>
			<<case 5>>
				<<He>> bucks into your crotch as <<he>> cums, squirting ejaculate from <<his>> pussy and drenching your legs. "You've been taught well."
				<br><br>
				<<thighejacstat>><<ejacstat>><<set $hygiene += 500>><<set $thighgoo += 1>>
			<</switch>>
		<<elseif $NPCList[0].vagina is "penis">>
			<<switch random(1, 6)>>
			<<case 1 2>>
				<<He>> grabs your shoulders as <<he>> cums, driving <<his>> pussy down hard against your cock as <<he>> shudders with pleasure. "That was a wonderful performance."
				<br><br>
				<<penileejacstat>><<ejacstat>><<set $hygiene += 500>><<set $penisgoo += 1>>
			<<case 3 4>>
				<<He>> sighs as <<he>> cums, reddening and going into a full body convulsion. Ejaculate soaks your crotch.
				<br><br>
				<<penileejacstat>><<ejacstat>><<set $hygiene += 500>><<set $penisgoo += 1>>
			<<case 5>>
				<<He>> bucks on your lap as <<he>> cums, squirting ejaculate from <<his>> pussy and drenching your crotch and legs.
				<br><br>
				<<penileejacstat>><<ejacstat>><<set $hygiene += 500>><<set $penisgoo += 1>>
				<<thighejacstat>><<ejacstat>><<set $hygiene += 500>><<set $thighgoo += 1>>
			<</switch>>
		<<elseif ($NPCList[0].vagina is "penisimminent" or $NPCList[0].vagina is "penisentrance") and $worn.genitals.type.includes("chastity")>>
			<<He>> tenses as <<he>> cums, ejaculating over your $worn.genitals.name. "Whoever put you in that had the right idea," <<he>> gasps. "If only I had a key."
			<br><br>
		<<elseif $NPCList[0].vagina is "penisimminent" or $NPCList[0].vagina is "penisentrance">>
			<<He>> cums on your <<penis>>; "Next time I expect penetration."
			<br><br>
		<<elseif $NPCList[0].vagina is "otheranusfrot" or $NPCList[0].vagina is "otheranusentrance" and $worn.genitals.type.includes("chastity")>>
			<<He>> tenses as <<he>> cums, ejaculating over your $worn.genitals.name. "Whoever put you in that had the right idea," <<he>> gasps. "If only I had a key."
			<br><br>
		<<elseif $NPCList[0].vagina is "otheranusfrot" or $NPCList[0].vagina is "otheranusentrance">>
			<<He>> bucks <<his>> ass against your cock as <<he>> cums. "Next time I expect you to properly service me, not toy with me."
			<br><br>
		<<elseif $NPCList[0].vagina is "frot" and $worn.genitals.type.includes("chastity")>>
			<<He>> tenses as <<he>> cums, ejaculating over your $worn.genitals.name. "Whoever put you in that had the right idea," <<he>> gasps. "If only I had a key."
			<br><br>
		<<elseif $NPCList[0].vagina is "frot">>
			<<He>> grinds <<his>> clit hard against your cock as <<he>> cums, ejaculating on your cock. <<He>> looks frustrated, "Next time I expect a good fucking, or there will be consequences..."
			<br><br>
			<<penileejacstat>><<ejacstat>><<set $hygiene += 500>><<set $penisgoo += 1>>
		<!-- Special case male PC with female NPC -->
		<<elseif $NPCList[0].mouth is "penis">>
			<<switch random(1, 4)>>
			<<case 1 2>>
				<<He>> cums as you fuck <<his>> mouth, pushing you off as <<he>> finishes.
				<br><br>
			<<case 3 4>>
				<<He>> cums as you fuck <<his>> mouth, leaving your <<penis>> a slimy mess. "Such a mess; you should go jump in the shower."
				<br><br>
			<</switch>>
		<<else>>
			<<He>> convulses in orgasmic bliss.
			<br><br>
		<</if>>
	<<else>>
		<<if $NPCList[0].vagina is "footjob">>
			<<switch random(1, 5)>>
			<<case 1 2 3>>
				<<He>> gasps as <<he>> cums. Recovering, <<he>> smiles and moves <<his>> foot to your body, <span class="red">stepping down heavily as you gasp for breath.</span> "I hope you're learning that I own you."
				<<gtrauma>><<gstress>><<gpain>><<violence 6>><<bruise chest>><<hitstat>>
				<br><br>
			<<case 4 5>>
				<<He>> cums, chuckling as <<he>> removes <<his>> foot from your crotch and rubs it against your face, covering your face in your own wetness.
				<br><br>
				<<faceejacstat>><<ejacstat>><<set $hygiene += 500>><<set $facegoo += 1>>
			<</switch>>
		<<elseif $NPCList[0].vagina is "vagina" and $worn.genitals.type.includes("chastity")>>
			<<He>> tenses as <<he>> cums, ejaculating over your $worn.genitals.name. "Whoever put you in that had the right idea," <<he>> gasps. "If only I had a key."
			<br><br>
		<<elseif $NPCList[0].vagina is "vagina">>
			<<switch random(1, 5)>>
			<<case 1 2>>
				<<He>> groans as <<he>> cums, dragging <<his>> wet pussy across your ass and thighs.
				<br><br>
			<<case 3 4>>
				<<He>> moans as <<he>> grabs you by the throat and grinds downs hard on your <<pussystop>>
				<<gstress>><<gtrauma>><<gpain>><<violence 3>><<bruise neck>><<hitstat>>
				<br><br>
			<<case 5>>
				<<He>> grabs you by the hair, mashing <<his>> entire body against yours. Ejaculate streams from <<his>> pussy, drenching you.
				<br><br>
				<<vaginalentranceejacstat>><<ejacstat>><<set $hygiene += 500>><<set $vaginaoutsidegoo += 1>>
			<</switch>>
		<<elseif $NPCList[0].vagina is "othermouth">>
			<<He>> shakes with arousal as <<he>> cums, wiping <<his>> wet face clean on your body.
			<br><br>
		<<elseif $NPCList[0].vagina is "lefthand" or $NPCList[0].vagina is "righthand">>
			<<He>> moans as <<he>> cums. <<He>> <span class="pink">grabs you by the hair and pulls you close:</span> "I hope you're learning that I own you."
			<br><br>
		<<elseif $NPCList[0].vagina is "mouthentrance" or $NPCList[0].vagina is "mouth" or $NPCList[0].vagina is "mouthimminent">>
			<<He>> groans and grabs you by the hair, grinding <<his>> crotch roughly against your face as <<his>> thighs shake with orgasm.
			<br><br>
			<<faceejacstat>><<ejacstat>><<set $hygiene += 500>><<set $facegoo += 1>>
		<!-- following appear to be Male PC to Female Antagonist only? -->
		<<elseif $NPCList[0].vagina is "otheranus">>
			<<He>> shakes as <<he>> cums, grabbing you by
			<<if $player.ballsExist>>the balls<<elseif $vaginaexist is 1>>the pussy<</if>>
			and dragging your cock deeply into <<his>> ass as <<he>> releases a final moan.
			<br><br>
		<<elseif $NPCList[0].vagina is "penis">>
			<<He>> digs <<his>> nails painfully into your shoulders as <<he>> cums, driving <<his>> pussy down hard against your cock as <<he>> shudders with pleasure.
			<br><br>
		<<elseif ($NPCList[0].vagina is "penisimminent" or $NPCList[0].vagina is "penisentrance") and $worn.genitals.type.includes("chastity")>>
			<<He>> tenses as <<he>> cums, ejaculating over your $worn.genitals.name. "Whoever put you in that had the right idea," <<he>> gasps. "If only I had a key."
			<br><br>
		<<elseif $NPCList[0].vagina is "penisimminent" or $NPCList[0].vagina is "penisentrance">>
			<<He>> moans as <<he>> cums on your throbbing cock. "Next time I expect penetration, or there will be consequences."
			<br><br>
		<<elseif $NPCList[0].vagina is "otheranusfrot" or $NPCList[0].vagina is "otheranusentrance" and $worn.genitals.type.includes("chastity")>>
			<<He>> tenses as <<he>> cums, ejaculating over your $worn.genitals.name. "Whoever put you in that had the right idea," <<he>> gasps. "If only I had a key."
			<br><br>
		<<elseif $NPCList[0].vagina is "otheranusfrot" or $NPCList[0].vagina is "otheranusentrance">>
			<<He>> swivels <<his>> ass against your cock as <<he>> cums. "Next time I expect to be fucked properly or I'll punish you."
			<br><br>
		<<elseif $NPCList[0].vagina is "frot" and $worn.genitals.type.includes("chastity")>>
			<<He>> tenses as <<he>> cums, ejaculating over your $worn.genitals.name. "Whoever put you in that had the right idea," <<he>> gasps. "If only I had a key."
			<br><br>
		<<elseif $NPCList[0].vagina is "frot">>
			<<He>> grabs you by the throat, pulling you down and grinding <<his>> clit hard against your cock as <<he>> cums. "Next time you need to penetrate me or I'll punish you."
			<<gstress>><<gtrauma>><<gpain>><<violence 3>><<bruise neck>><<hitstat>>
			<br><br>
		<!-- Special case male PC with female NPC -->
		<<elseif $NPCList[0].mouth is "penis">>
			<<He>> cums as you fuck <<his>> mouth, shoving you away as <<he>> gasps for air. "That's enough."
			<br><br>
		<<else>>
			<<switch random(1, 7)>>
			<<case 1 2 3>>
				<<He>> trembles with orgasm. Pulling your face close <<he>> says, "I hope you're learning that you're subject to my desires."
				<br><br>
			<<case 4 5 6>>
				<<He>> sighs quietly as <<he>> cums, smacking your ass. "Don't forget that I own you."
				<br><br>
			<<case 7>>
				<<He>> rapidly rubs <<his>> clit, stifling a moan as <<he>> cums; <<his>> pussy squirting and covering you in ejaculate.
				<br><br>
				<<chestejacstat>><<ejacstat>><<set $hygiene += 500>><<set $chestgoo += 1>>
			<</switch>>
		<</if>>
	<</if>>
<</if>>

<!-- Male EDEN -->
<<if $consensual is 1>>
	<<if $NPCList[0].penis is "idle">>
		<<He>> groans as a wet patch forms on <<his>> trousers. You barely stifle a giggle at the sight.
		<br><br>
	<<elseif $NPCList[0].penis is "thighs">>
		<<switch random(1, 7)>>
		<<case 1 2 3>>
			<<He>> shakes as <<he>> cums, pulling <<his>> cock out and ejaculating onto the backs of your thighs.
			<br><br>
			<<thighejacstat>><<ejacstat>><<set $hygiene += 500>><<set $thighsemen += 1>>
		<<case 4 5 6>>
			<<He>> grabs your legs, pushing <<his>> crotch hard into yours as <<he>> cums and ejaculating onto your tummy.
			<br><br>
			<<tummyejacstat>><<ejacstat>><<set $hygiene += 500>><<set $tummysemen += 1>>
		<<case 7>>
			<<He>> groan as <<he>> cums, ejaculating a massive load that covers your thighs and tummy.
			<br><br>
			<<thighejacstat>><<ejacstat>><<set $hygiene += 500>><<set $thighsemen += 1>>
			<<tummyejacstat>><<ejacstat>><<set $hygiene += 500>><<set $tummysemen += 1>>
		<</switch>>
	<<elseif $NPCList[0].penis is "vaginaentrance" and $worn.genitals.type.includes("chastity")>>
		<<He>> tenses as <<he>> cums, ejaculating over your $worn.genitals.name. "Whoever put you in that had the right idea," <<he>> gasps. "If only I had a key."
		<br><br>
	<<elseif $NPCList[0].penis is "vaginaentrance">>
		<<switch random(1, 7)>>
		<<case 1 2 3>>
			<<He>> holds you still by the hips with one hand and with the other on <<his>> cock, ejaculates onto your <<pussystop>> Semen coats your outer lips and pools around your legs.
			<br><br>
			<<vaginalentranceejacstat>><<ejacstat>><<set $hygiene += 500>><<set $vaginaoutsidesemen += 1>>
		<<case 4 5 6>>
			<<He>> strokes <<his>> cock and ejaculates onto your <<pussy>> without a word, sending white streams of semen running down your cunt.
			<br><br>
			<<vaginalentranceejacstat>><<ejacstat>><<set $hygiene += 500>><<set $vaginaoutsidesemen += 1>>
		<<case 7>>
			<<He>> moans and strokes <<his>> cock as <<he>> cums, sending thick ropes of semen onto your <<pussy>> and ass.
			<br><br>
			<<vaginalentranceejacstat>><<ejacstat>><<set $hygiene += 500>><<set $vaginaoutsidesemen += 1>>
			<<bottomejacstat>><<ejacstat>><<set $hygiene += 500>><<set $bottomsemen += 1>>
		<</switch>>
	<<elseif $NPCList[0].penis is "vaginaimminent" and $worn.genitals.type.includes("chastity")>>
		<<He>> tenses as <<he>> cums, ejaculating over your $worn.genitals.name. "Whoever put you in that had the right idea," <<he>> gasps. "If only I had a key."
		<br><br>
	<<elseif $NPCList[0].penis is "vaginaimminent">>
		<<switch random(1, 7)>>
		<<case 1 2 3>>
			<<He>> cums before <<he>> can penetrate your <<pussycomma>> ejaculating on the outside. Semen coats your outer lips and tummy; <<he>> seems disappointed.
			<br><br>
			<<vaginalentranceejacstat>><<ejacstat>><<set $hygiene += 500>><<set $vaginaoutsidesemen += 1>>
		<<case 4 5 6>>
			<<He>> ejaculates onto your <<pussy>> before <<he>> can penetrate you, sending white streams of semen running down your <<pussy>>; <<he>> seems disappointed.
			<br><br>
			<<vaginalentranceejacstat>><<ejacstat>><<set $hygiene += 500>><<set $vaginaoutsidesemen += 1>>
		<<case 7>>
			<<He>> moans and strokes <<his>> cock as <<he>> cums, sending thick ropes of semen onto your <<pussy>> and ass. "Quite a mess; you really should hit the showers."
			<br><br>
			<<vaginalentranceejacstat>><<ejacstat>><<set $hygiene += 500>><<set $vaginaoutsidesemen += 1>>
			<<bottomejacstat>><<ejacstat>><<set $hygiene += 500>><<set $bottomsemen += 1>>
		<</switch>>
	<<elseif $NPCList[0].penis is "vagina">>
		<<switch random(1, 7)>>
		<<case 1 2 3>>
			<<He>> moans and thrusts deeply into your <<pussy>> as <<he>> cums, holding <<his>> cock deep in your womb. You feel warm as semen fills your vagina.
			<br><br>
			<<vaginalejacstat>><<ejacstat>><<set $hygiene += 500>><<set $vaginasemen += 1>>
		<<case 4 5 6>>
			<<He>> quiets and grabs your shoulders, pulling you deeply onto <<his>> cock as <<he>> cums. Semen fills your <<pussycomma>> leaving you breathless.
			<br><br>
			<<vaginalejacstat>><<ejacstat>><<set $hygiene += 500>><<set $vaginasemen += 1>>
		<<case 7>>
			<<He>> convulses and grinds down on your crotch as <<he>> cums, sending thick waves of cum into your <<pussystop>> Semen oozes from your vagina and down your legs.
			<br><br>
			<<vaginalentranceejacstat>><<ejacstat>><<set $hygiene += 500>><<set $vaginaoutsidesemen += 1>>
			<<thighejacstat>><<ejacstat>><<set $hygiene += 500>><<set $thighsemen += 1>>
		<</switch>>
	<<elseif $NPCList[0].penis is "cheeks" and $worn.genitals.type.includes("chastity")>>
		<<He>> tenses as <<he>> cums, ejaculating over your $worn.genitals.name. "Whoever put you in that had the right idea," <<he>> gasps. "If only I had a key."
		<br><br>
	<<elseif $NPCList[0].penis is "cheeks">>
		<<switch random(1, 7)>>
		<<case 1 2 3>>
			<<He>> shakes as <<he>> cums, withdrawing <<his>> cock from your cheeks and ejaculating onto your ass.
			<br><br>
			<<bottomejacstat>><<ejacstat>><<set $hygiene += 500>><<set $bottomsemen += 1>>
		<<case 4 5 6>>
			<<He>> grabs your thighs, pushing <<his>> crotch hard against your ass and ejaculating between your cheeks.
			<br><br>
			<!-- Really should be onto PCs back given position. Or hair maybe. Esp next one -->
			<<bottomejacstat>><<ejacstat>><<set $hygiene += 500>><<set $bottomsemen += 1>>
		<<case 7>>
			<<He>> squeezes your cheeks together and grunts as <<he>> cums, sending out massive load that covers your ass and drips down your crotch; <<he>> seems pleased.
			<br><br>
			<<bottomejacstat>><<ejacstat>><<set $hygiene += 1000>><<set $bottomsemen += 2>>
		<</switch>>
	<<elseif $NPCList[0].penis is "anusentrance" and $worn.genitals.type.includes("chastity") and $worn.genitals.anal_shield is 1>>
		<<He>> tenses as <<he>> cums, ejaculating over your $worn.genitals.name. "Whoever put you in that had the right idea," <<he>> gasps. "If only I had a key."
		<br><br>
	<<elseif $NPCList[0].penis is "anusentrance">>
		<<switch random(1, 7)>>
		<<case 1 2 3>>
			<<He>> pinches your asscheek with one hand and strokes <<his>> cock with the other, ejaculating onto your bottom. Semen drips down your butt and into your crack.
			<br><br>
			<<bottomejacstat>><<ejacstat>><<set $hygiene += 500>><<set $bottomsemen += 1>>
		<<case 4 5 6>>
			<<He>> strokes <<his>> cock and quietly ejaculates onto your ass. You feel warm semen dripping down your bottom.
			<br><br>
			<<bottomejacstat>><<ejacstat>><<set $hygiene += 500>><<set $bottomsemen += 1>>
		<<case 7>>
			<<He>> moans and strokes <<his>> cock as <<he>> cums, sending thick ropes of semen onto your ass and down your crotch.
			<br><br>
			<<bottomejacstat>><<ejacstat>><<set $hygiene += 1000>><<set $bottomsemen += 2>>
		<</switch>>
	<<elseif $NPCList[0].penis is "anusimminent" and $worn.genitals.type.includes("chastity") and $worn.genitals.anal_shield is 1>>
		<<He>> tenses as <<he>> cums, ejaculating over your $worn.genitals.name. "Whoever put you in that had the right idea," <<he>> gasps. "If only I had a key."
		<br><br>
	<<elseif $NPCList[0].penis is "anusimminent">>
		<<switch random(1, 7)>>
		<<case 1 2 3>>
			<<He>> cums before <<he>> can penetrate your ass, ejaculating on the outside. Semen coats your ass and drips down your crack; <<he>> seems disappointed.
			<br><br>
			<<bottomejacstat>><<ejacstat>><<set $hygiene += 500>><<set $bottomsemen += 1>>
		<<case 4 5 6>>
			<<He>> strokes <<his>> cock and ejaculates onto your ass before <<he>> can penetrate you, sending white streams of semen running down your crack; <<he>> seems disappointed.
			<br><br>
			<<bottomejacstat>><<ejacstat>><<set $hygiene += 500>><<set $bottomsemen += 1>>
		<<case 7>>
			<<He>> moans and strokes <<his>> cock as <<he>> cums, sending thick ropes of semen onto your ass and crotch.
			<br><br>
			<<bottomejacstat>><<ejacstat>><<set $hygiene += 1000>><<set $bottomsemen += 2>>
		<</switch>>
	<<elseif $NPCList[0].penis is "anus">>
		<<switch random(1, 7)>>
		<<case 1 2 3>>
			<<He>> moans and thrusts deeply into your ass as <<he>> cums. You gasp as you take <<his>> entire length, and feel semen filling your insides.
			<br><br>
			<<analejacstat>><<ejacstat>><<set $hygiene += 500>><<set $anussemen += 1>>
		<<case 4 5 6>>
			<<He>> wordlessly grabs your shoulders, pulling you back onto <<his>> cock as <<he>> cums. Semen fills your ass as you moan with pleasure.
			<br><br>
			<<analejacstat>><<ejacstat>><<set $hygiene += 500>><<set $anussemen += 1>>
		<<case 7>>
			<<He>> convulses and, with a final shove, cums in your ass. Thick waves of semen pump into you. It's more than you can hold; cum oozes from your ass and runs down your legs.
			<br><br>
			<<analejacstat>><<ejacstat>><<set $hygiene += 500>><<set $anussemen += 1>>
			<<thighejacstat>><<ejacstat>><<set $hygiene += 500>><<set $thighsemen += 1>>
		<</switch>>
	<<elseif $NPCList[0].penis is "chest">>
		<<switch random(1, 7)>>
		<<case 1 2 3>>
			<<He>> pushes your <<breasts>> together tightly on <<his>> cock as <<he>> cums, ejaculating onto them. Your body feels slick with cum.
			<br><br>
			<<chestejacstat>><<ejacstat>><<set $hygiene += 500>><<set $chestsemen += 1>>
		<<case 4 5 6>>
			<<He>> strokes the tip of <<his>> cock between your <<breasts>> and quietly ejaculates on them. Your <<breasts>> feel cool as semen drips down them.
			<br><br>
			<<chestejacstat>><<ejacstat>><<set $hygiene += 500>><<set $chestsemen += 1>>
		<<case 7>>
			<<He>> puts <<his>> hand behind your neck and bears down on your <<breastscomma>> grunting as <<he>> cums; semen shoots between your <<breasts>> and covers your <<if $position is "missionary">>face<<faceejacstat>><<ejacstat>><<set $hygiene += 500>><<set $facesemen += 1>><<else>>stomach<<tummyejacstat>><<ejacstat>><<set $hygiene += 500>><<set $tummysemen += 1>><</if>>. "Such a mess. You should hit the showers."
			<br><br>
			<<chestejacstat>><<ejacstat>><<set $hygiene += 500>><<set $chestsemen += 1>>
		<</switch>>
	<<elseif $NPCList[0].penis is "mouthentrance">>
		<<switch random(1, 7)>>
		<<case 1 2 3>>
			<<He>> cups you under the chin with one hand and strokes <<his>> cock with the other, ejaculating onto your face; <<he>> chuckles at the resulting mess and hands you a tissue.
			<br><br>
			<<faceejacstat>><<ejacstat>><<set $hygiene += 500>><<set $facesemen += 1>>
		<<case 4 5 6>>
			<<He>> strokes <<his>> cock and quietly ejaculates onto your face. Warm cums drips down your forehead and nose. <<He>> smiles and hands you a tissue.
			<br><br>
			<<faceejacstat>><<ejacstat>><<set $hygiene += 500>><<set $facesemen += 1>>
		<<case 7>>
			<<He>> grasps the top of your head, stroking <<his>> cock while aiming straight at your mouth. Thick ropes of cum cover your face and push past your closed lips into your mouth. "Tsk tsk. You really need to learn to swallow. Such a mess."
			<br><br>
			<<faceejacstat>><<ejacstat>><<set $hygiene += 500>><<set $facesemen += 1>>
			<<oralejacstat>><<ejacstat>><<set $hunger -= 200>><<set $thirst -= 200>><<set $mouthsemen += 1>>
		<</switch>>
	<<elseif $NPCList[0].penis is "mouthimminent">>
		<<switch random(1, 7)>>
		<<case 1 2 3>>
			<<He>> cups the back of your head, ejaculating onto your lips as you barely brush against the tip of <<his>> penis; <<he>> seems disappointed.
			<br><br>
			<<faceejacstat>><<ejacstat>><<set $hygiene += 500>><<set $facesemen += 1>>
		<<case 4 5 6>>
			<<He>> brushes <<his>> cock against your face, causing <<him>> to ejaculate early. Cums drips down your lips and chin; <<he>> seems disappointed.
			<br><br>
			<<faceejacstat>><<ejacstat>><<set $hygiene += 500>><<set $facesemen += 1>>
		<<case 7>>
			<<He>> grasps your hair but in <<his>> excitement cums before <<he>> can enter your mouth. Thick ropes of cum cover your cheeks, chin, and into your waiting mouth.
			<br><br>
			<<faceejacstat>><<ejacstat>><<set $hygiene += 500>><<set $facesemen += 1>>
			<<oralejacstat>><<ejacstat>><<set $hunger -= 200>><<set $thirst -= 200>><<set $mouthsemen += 1>>
		<</switch>>
	<<elseif $NPCList[0].penis is "mouth">>
	<!-- this is picking up women NPCs...? -->
		<<switch random(1, 7)>>
		<<case 1 2 3>>
			<<He>> cups you under the chin with one hand and by your hair with the other, thrusting deeply into your mouth as <<he>> cums. Ejaculate streams down your throat and fills your mouth.
			<br><br>
			<<oralejacstat>><<ejacstat>><<set $hunger -= 200>><<set $thirst -= 200>><<set $mouthsemen += 1>>
		<<case 4 5 6>>
			<<He>> grasps the base of <<his>> cock and moans, quietly ejaculating into your mouth. You feel warm cum fill your mouth and drip down your throat.
			<br><br>
			<<oralejacstat>><<ejacstat>><<set $hunger -= 200>><<set $thirst -= 200>><<set $mouthsemen += 1>>
		<<case 7>>
			<<He>> grasps the back of your head, wildly thrusting <<his>> cock in your mouth as <<he>> cums. Semen streams down your throat, fills your mouth and drips down your chin. "Tsk tsk. You really need to learn to swallow." He hands you a tissue to clean up.
			<br><br>
			<<faceejacstat>><<ejacstat>><<set $hygiene += 500>><<set $facesemen += 1>>
			<<oralejacstat>><<ejacstat>><<set $hunger -= 200>><<set $thirst -= 200>><<set $mouthsemen += 1>>
		<</switch>>
	<<elseif $NPCList[0].penis is "feet">>
		<<switch random(1, 7)>>
		<<case 1 2 3>>
			<<He>> pushes your feet together and groans as <<he>> cums. Ejaculate covers your feet.
			<br><br>
			<<feetejacstat>><<ejacstat>><<set $hygiene += 500>><<set $feetsemen += 1>>
		<<case 4 5 6>>
			<<He>> quietly cums on your feet, slickening them with semen.
			<br><br>
			<<feetejacstat>><<ejacstat>><<set $hygiene += 500>><<set $feetsemen += 1>>
		<<case 7>>
			<<He>> grunts and thrusts <<his>> cock between your feet as <<he>> cums, splattering cum on your feet and legs in the process.
			<br><br>
			<<feetejacstat>><<ejacstat>><<set $hygiene += 500>><<set $feetsemen += 1>>
			<<thighejacstat>><<ejacstat>><<set $hygiene += 500>><<set $thighsemen += 1>>
		<</switch>>
	<<elseif $NPCList[0].penis is "leftarm" and $NPCList[0].penis is "rightarm">>
		<<switch random(1, 7)>>
		<<case 1 2 3>>
			<<He>> groans as <<he>> cums, penis pulsing in your hands, covering them both in cum. "Such an enthusiatic student, using both hands."
			<br><br>
			<<handejacstat>><<ejacstat>><<set $hygiene += 500>><<set $leftarmsemen += 1>><<set $rightarmsemen += 1>>
		<<case 4 5 6>>
			<<He>> quietly cums on your hands, slickening them with semen.
			<br><br>
			<<handejacstat>><<ejacstat>><<set $hygiene += 500>><<set $leftarmsemen += 1>><<set $rightarmsemen += 1>>
		<<case 7>>
			<<He>> spasms and moans, shooting thick streams of cum. You are so intent on your work you don't notice <<his>> penis is aimed at your face, which is splattered with cum in the process. <<He>> chuckles and hands you a tissue.
			<br><br>
			<<handejacstat>><<ejacstat>><<set $hygiene += 500>><<set $leftarmsemen += 1>><<set $rightarmsemen += 1>>
			<<faceejacstat>><<ejacstat>><<set $hygiene += 500>><<set $facesemen += 1>>
		<</switch>>
	<<elseif $NPCList[0].penis is "leftarm">>
		<<switch random(1, 7)>>
		<<case 1 2 3>>
			<<He>> groans as <<he>> cums, penis sliding hotly in your left hand and covering it with cum. "Such a mess; you should wash your hands."
			<br><br>
			<<handejacstat>><<ejacstat>><<set $hygiene += 500>><<set $leftarmsemen += 1>>
		<<case 4 5 6>>
			<<He>> quietly cums on your left hand. Semen drips down your fingers. <<He>> hands you a tissue.
			<br><br>
			<<handejacstat>><<ejacstat>><<set $hygiene += 500>><<set $leftarmsemen += 1>>
		<<case 7>>
			<<He>> spasms and moans, shooting thick streams of cum and splattering your <<breasts>> in the process. <<He>> smiles and hands you a gym towel to clean up.
			<br><br>
			<<handejacstat>><<ejacstat>><<set $hygiene += 500>><<set $leftarmsemen += 1>>
			<<chestejacstat>><<ejacstat>><<set $hygiene += 500>><<set $chestsemen += 1>>
		<</switch>>
	<<elseif $NPCList[0].penis is "rightarm">>
		<<switch random(1, 7)>>
		<<case 1 2 3>>
			<<He>> groans as your work <<his>> shaft with your right hand, cumming as you give <<him>> a final squeeze. Your hand is covered in warm semen. "What messy fingers; you should go wash your hands."
			<br><br>
			<<handejacstat>><<ejacstat>><<set $hygiene += 500>><<set $rightarmsemen += 1>>
		<<case 4 5 6>>
			<<He>> quietly cums on your right hand. Semen cools on your fingers. <<He>> smiles and hands you a tissue.
			<br><br>
			<<handejacstat>><<ejacstat>><<set $hygiene += 500>><<set $rightarmsemen += 1>>
		<<case 7>>
			<<He>> grunts and shoots thick ropes of semen onto your hands, making an impressive mess. <<He>> smiles and hands you a gym towel to clean up.
			<br><br>
			<<handejacstat>><<ejacstat>><<set $hygiene += 500>><<set $rightarmsemen += 1>>
		<</switch>>
	<<elseif $NPCList[0].penis is 0>>
		<<switch random(1, 4)>>
		<<case 1>>
			<<He>> groans as <<he>> works <<his>> shaft and, giving <<his>> cock a final squeeze, ejaculates onto your tummy. "Such a fast learner."
			<br><br>
			<<tummyejacstat>><<ejacstat>><<set $hygiene += 500>><<set $tummysemen += 1>>
		<<case 2>>
			<<He>> rapidly rubs <<his>> cock and aims at your face, covering it with semen. <<He>> smiles and hands you a tissue.
			<br><br>
			<<faceejacstat>><<ejacstat>><<set $hygiene += 500>><<set $facesemen += 1>>
		<<case 3>>
			<<He>> strokes <<his>> penis and, aiming at your ass, ejaculates on your bottom.
			<br><br>
			<<bottomejacstat>><<ejacstat>><<set $hygiene += 500>><<set $bottomsemen += 1>>
		<<case 4>>
			<<He>> strokes <<his>> penis and moans, ejaculating on your <<breastsstop>>
			<br><br>
			<<chestejacstat>><<ejacstat>><<set $hygiene += 500>><<set $chestsemen += 1>>
		<</switch>>
	<<elseif $NPCList[0].penis is "otheranus">>
		<<switch random(1, 7)>>
		<<case 1 2 3>>
			<<He>> groans as you fuck <<his>> ass, <<his>> ejaculate spraying on <<his>> own stomach. "Thanks, that's quite enough."
			<br><br>
		<<case 4 5>>
			<<He>> whimpers as you pound <<his>> ass, moaning in please as <<he>> ejaculates on the ground. You roll off <<himstop>>
			<br><br>
		<<case 6 7>>
			<<He>> sighs as <<he>> ejaculates onto <<his>> own chest.
			<br><br>
		<</switch>>
	<<elseif $NPCList[0].penis is "otheranusfrot" or $NPCList[0].penis is "otheranusentrance" or $NPCList[0].penis is "otheranusimminent" and $worn.genitals.type.includes("chastity")>>
		<<He>> tenses as <<he>> cums, ejaculating over your $worn.genitals.name. "Whoever put you in that had the right idea," <<he>> gasps. "If only I had a key."
		<br><br>
	<<elseif $NPCList[0].penis is "otheranusfrot" or $NPCList[0].penis is "otheranusentrance" or $NPCList[0].penis is "otheranusimminent">>
		<<switch random(1, 7)>>
		<<case 1 2 3>>
			<<He>> noisily cums as you fuck <<his>> cheeks, grabbing your ass from behind and grinding your cock against <<his>> ass to finish. "Next time I expect penetration."
			<br><br>
		<<case 4 5>>
			<<He>> moans as you rub against <<his>> anus and ejaculates on the ground. You roll off <<himstop>>
			<br><br>
		<<case 6 7>>
			<<He>> sighs as <<he>> ejaculates onto <<his>> own chest.
			<br><br>
		<</switch>>
	<!-- Special case male PC being orally serviced by male NPC with no other contact -->
	<<elseif $NPCList[0].mouth is "penis" and $worn.genitals.type.includes("chastity")>>
		<<He>> tenses as <<he>> cums, ejaculating over your $worn.genitals.name. "Whoever put you in that had the right idea," <<he>> gasps. "If only I had a key."
		<br><br>
	<<elseif $NPCList[0].mouth is "penis">>
		<<switch random(1, 7)>>
		<<case 1 2 3>>
			<<He>> cums as you fuck <<his>> mouth, gasping against your cock. "You're quite the talented student."
			<br><br>
		<<case 4 5>>
			<<He>> cums on the ground as you fuck <<his>> mouth. <<He>> pushes you away, "Thanks, that's quite enough."
			<br><br>
		<<case 6 7>>
			<<He>> grabs you by the ass and drives your cock deeply into <<his>> throat, ejaculating on <<his>> chest as <<he>> throats your cock.
			<br><br>
		<</switch>>
	<<elseif $NPCList[0].penis is "othermouth">>
		<<He>> shakes with arousal as <<he>> cums, wiping <<his>> wet face clean on your body.
		<br><br>
	<</if>>
<<else>>
	<<if $NPCList[0].penis is "idle">>
		<<He>> groans as a wet patch forms on <<his>> trousers. You barely stifle a laugh at the pathetic display.
		<br><br>
	<<elseif $NPCList[0].penis is "thighs">>
		<<switch random(1, 7)>>
		<<case 1 2 3>>
			<<He>> shakes as <<he>> cums, pulling <<his>> cock out and ejaculating onto the backs of your thighs, and wipes <<his>> cock clean on your ass.
			<br><br>
			<<thighejacstat>><<ejacstat>><<set $hygiene += 500>><<set $thighsemen += 1>>
		<<case 4 5 6>>
			<<He>> grabs your legs, slamming <<his>> crotch hard into your ass as <<he>> cums and ejaculates onto your tummy.
			<br><br>
			<<tummyejacstat>><<ejacstat>><<set $hygiene += 500>><<set $tummysemen += 1>>
		<<case 7>>
			<<He>> groan as <<he>> cums, ejaculating a massive load that covers your thighs and tummy. "You'll submit for my pleasure anytime I wish; don't forget it."
			<br><br>
			<<thighejacstat>><<ejacstat>><<set $hygiene += 500>><<set $thighsemen += 1>>
			<<tummyejacstat>><<ejacstat>><<set $hygiene += 500>><<set $tummysemen += 1>>
		<</switch>>
	<<elseif $NPCList[0].penis is "vaginaentrance" and $worn.genitals.type.includes("chastity")>>
		<<He>> tenses as <<he>> cums, ejaculating over your $worn.genitals.name. "Whoever put you in that had the right idea," <<he>> gasps. "If only I had a key."
		<br><br>
	<<elseif $NPCList[0].penis is "vaginaentrance">>
		<<switch random(1, 7)>>
		<<case 1 2 3>>
			<<He>> shoves <<his>> thumb into your ass, pulling you back and ejaculating onto your <<pussystop>> Semen coats your outer lips and pools around your legs.
			<br><br>
			<<vaginalentranceejacstat>><<ejacstat>><<set $hygiene += 500>><<set $vaginaoutsidesemen += 1>>
		<<case 4 5 6>>
			<<He>> strokes <<his>> cock and ejaculates onto your <<pussy>> without a word, sending white streams of semen running down your cunt; flicking <<his>> cock dry on your body.
			<br><br>
			<<vaginalentranceejacstat>><<ejacstat>><<set $hygiene += 500>><<set $vaginaoutsidesemen += 1>>
		<<case 7>>
			<<He>> moans and strokes <<his>> cock as <<he>> cums, sending thick ropes of semen onto your <<pussy>> and ass; <<he>> dries <<his>> cock on your thighs.
			<br><br>
			<<vaginalentranceejacstat>><<ejacstat>><<set $hygiene += 500>><<set $vaginaoutsidesemen += 1>>
			<<bottomejacstat>><<ejacstat>><<set $hygiene += 500>><<set $bottomsemen += 1>>
		<</switch>>
	<<elseif $NPCList[0].penis is "vaginaimminent" and $worn.genitals.type.includes("chastity")>>
		<<He>> tenses as <<he>> cums, ejaculating over your $worn.genitals.name. "Whoever put you in that had the right idea," <<he>> gasps. "If only I had a key."
		<br><br>
	<<elseif $NPCList[0].penis is "vaginaimminent">>
		<<switch random(1, 7)>>
		<<case 1 2 3>>
			<<He>> cums before <<he>> can penetrate your <<pussycomma>> ejaculating on the outside. Semen coats your outer lips and tummy; <span class="red"><<he>> spanks your ass angrily.</span>
			<<gstress>><<gtrauma>><<gpain>><<violence 6>><<bruise bottom>><<hitstat>>
			<br><br>
			<<vaginalentranceejacstat>><<ejacstat>><<set $hygiene += 500>><<set $vaginaoutsidesemen += 1>>
		<<case 4 5 6>>
			<<He>> ejaculates onto your <<pussy>> before <<he>> can penetrate you, sending white streams of semen running down your cunt; <<he>> groans in disappointment.
			<br><br>
			<<vaginalentranceejacstat>><<ejacstat>><<set $hygiene += 500>><<set $vaginaoutsidesemen += 1>>
		<<case 7>>
			<<He>> moans and strokes <<his>> cock as <<he>> cums, sending thick ropes of semen onto your <<pussy>> and ass. "I hope you're learning that you're mine any time I want you."
			<br><br>
			<<vaginalentranceejacstat>><<ejacstat>><<set $hygiene += 500>><<set $vaginaoutsidesemen += 1>>
			<<bottomejacstat>><<ejacstat>><<set $hygiene += 500>><<set $bottomsemen += 1>>
		<</switch>>
	<<elseif $NPCList[0].penis is "vagina">>
		<<switch random(1, 7)>>
		<<case 1 2 3>>
			<<He>> grabs your hair, pulling and thrusting deeply into your <<pussy>> as <<he>> cums, holding <<his>> cock deep in your womb. Semen splashes inside your bruised cunt.
			<br><br>
			<<vaginalejacstat>><<ejacstat>><<set $hygiene += 500>><<set $vaginasemen += 1>>
		<<case 4 5 6>>
			<<He>> quiets and grabs your throat, pounding <<his>> cock into you as <<he>> cums. Semen fills your <<pussy>> as you gasp for air.
			<<gstress>><<gtrauma>><<gpain>><<violence 3>><<bruise neck>><<hitstat>>
			<br><br>
			<<vaginalejacstat>><<ejacstat>><<set $hygiene += 500>><<set $vaginasemen += 1>>
		<<case 7>>
			<<He>> convulses and grinds down on your cunt as <<he>> cums, smashing your <<clit>> and sending thick waves of cum into your <<pussystop>> Semen oozes from your vagina and down your legs. "With more training you'll learn to better control your body."
			<br><br>
			<<vaginalentranceejacstat>><<ejacstat>><<set $hygiene += 500>><<set $vaginaoutsidesemen += 1>>
			<<thighejacstat>><<ejacstat>><<set $hygiene += 500>><<set $thighsemen += 1>>
		<</switch>>
	<<elseif $NPCList[0].penis is "cheeks" and $worn.genitals.type.includes("chastity")>>
		<<He>> tenses as <<he>> cums, ejaculating over your $worn.genitals.name. "Whoever put you in that had the right idea," <<he>> gasps. "If only I had a key."
		<br><br>
	<<elseif $NPCList[0].penis is "cheeks">>
		<<switch random(1, 7)>>
		<<case 1 2 3>>
			<<He>> shakes as <<he>> cums, withdrawing <<his>> cock from your cheeks and ejaculating onto your ass; giving you a parting smack on the butt.
			<br><br>
			<<bottomejacstat>><<ejacstat>><<set $hygiene += 500>><<set $bottomsemen += 1>>
		<<case 4 5 6>>
			<<He>> pinches the top of your cheeks with <<his>> hands and pulls you hard against <<himcomma>> ejaculating between your cheeks.
			<br><br>
			<!-- Really should be onto PCs back given position. Or hair maybe. Esp next one -->
			<<bottomejacstat>><<ejacstat>><<set $hygiene += 500>><<set $bottomsemen += 1>>
		<<case 7>>
			<<He>> squeezes your cheeks together and grunts as <<he>> cums, sending out massive load that covers your ass and drips down your crotch. "You're a mess; perhaps I should throw you in the pool..."
			<br><br>
			<<bottomejacstat>><<ejacstat>><<set $hygiene += 1000>><<set $bottomsemen += 2>>
		<</switch>>
	<<elseif $NPCList[0].penis is "anusentrance" and $worn.genitals.type.includes("chastity") and $worn.genitals.anal_shield is 1>>
		<<He>> tenses as <<he>> cums, ejaculating over your $worn.genitals.name. "Whoever put you in that had the right idea," <<he>> gasps. "If only I had a key."
		<br><br>
	<<elseif $NPCList[0].penis is "anusentrance">>
		<<switch random(1, 7)>>
		<<case 1 2 3>>
			<<He>> <span class="blue">slaps your asscheek with one hand</span> and strokes <<his>> cock with the other, ejaculating onto your bottom. Semen drips down your butt and into your crack.
			<<gstress>><<gtrauma>><<gpain>><<violence 3>><<bruise bottom>><<hitstat>>
			<br><br>
			<<bottomejacstat>><<ejacstat>><<set $hygiene += 500>><<set $bottomsemen += 1>>
		<<case 4 5 6>>
			<<He>> strokes <<his>> cock and quietly ejaculates onto your ass. You feel semen dripping down your crack, and feel filthy inside.
			<br><br>
			<<bottomejacstat>><<ejacstat>><<set $hygiene += 500>><<set $bottomsemen += 1>>
		<<case 7>>
			<<He>> moans and strokes <<his>> cock as <<he>> cums, sending thick ropes of semen onto your ass and down your crotch. "I restrained myself; next time you're taking the whole shaft."
			<br><br>
			<<bottomejacstat>><<ejacstat>><<set $hygiene += 1000>><<set $bottomsemen += 2>>
		<</switch>>
	<<elseif $NPCList[0].penis is "anusimminent" and $worn.genitals.type.includes("chastity") and $worn.genitals.anal_shield is 1>>
		<<He>> tenses as <<he>> cums, ejaculating over your $worn.genitals.name. "Whoever put you in that had the right idea," <<he>> gasps. "If only I had a key."
		<br><br>
	<<elseif $NPCList[0].penis is "anusimminent">>
		<<switch random(1, 7)>>
		<<case 1 2 3>>
			<<He>> cums before <<he>> can penetrate your ass, ejaculating on the outside. Semen coats your ass and drips down your crack; <span class="red"><<he>> spanks your ass angrily.</span>
			<<gstress>><<gtrauma>><<gpain>><<violence 6>><<bruise bottom>><<hitstat>>
			<br><br>
			<<bottomejacstat>><<ejacstat>><<set $hygiene += 500>><<set $bottomsemen += 1>>
		<<case 4 5 6>>
			<<He>> strokes <<his>> cock and ejaculates onto your ass before <<he>> can penetrate you, sending white streams of semen running down your crack; <<he>> seems disappointed.
			<br><br>
			<<bottomejacstat>><<ejacstat>><<set $hygiene += 500>><<set $bottomsemen += 1>>
		<<case 7>>
			<<He>> moans and strokes <<his>> cock as <<he>> cums, sending thick ropes of semen onto your ass and crotch. "I restrained myself. Next time you're taking my entire length."
			<br><br>
			<<bottomejacstat>><<ejacstat>><<set $hygiene += 1000>><<set $bottomsemen += 2>>
		<</switch>>
	<<elseif $NPCList[0].penis is "anus">>
		<<switch random(1, 7)>>
		<<case 1 2 3>>
			<<He>> moans, pounding your ass mercilessly as <<he>> cums. You whimper as you take <<his>> entire length, and feel unwelcome semen streaming in your asshole.
			<br><br>
			<<analejacstat>><<ejacstat>><<set $hygiene += 500>><<set $anussemen += 1>>
		<<case 4 5 6>>
			<<He>> wordlessly grabs your hair, pulling you hard onto <<his>> cock as <<he>> cums. Semen fills you as you cry out, <<his>> girth stretching your anus.
			<br><br>
			<<analejacstat>><<ejacstat>><<set $hygiene += 500>><<set $anussemen += 1>>
		<<case 7>>
			<<He>> convulses and with a final shove, cums in your ass. Thick waves of semen pump into you. <span class="blue">You gasp as your ass overflows;</span> cum oozes from your ass and runs down your legs. "Such a mess. With more training, you'll be able to better control yourself."
			<br><br>
			<<analejacstat>><<ejacstat>><<set $hygiene += 500>><<set $anussemen += 1>>
			<<thighejacstat>><<ejacstat>><<set $hygiene += 500>><<set $thighsemen += 1>>
		<</switch>>
	<<elseif $NPCList[0].penis is "chest">>
		<<switch random(1, 7)>>
		<<case 1 2 3>>
			<<He>> pinches your <<breasts>> together on <<his>> cock as <<he>> cums, ejaculating onto them. "I hope you're learning that you exist for my pleasure."
			<br><br>
			<<chestejacstat>><<ejacstat>><<set $hygiene += 500>><<set $chestsemen += 1>>
		<<case 4 5 6>>
			<<He>> grabs your hair to force you to look at <<him>> while <<he>> strokes the tip of <<his>> cock between your <<breasts>> and wordlessly ejaculates onto them. "I want you to look at me while I use you for my pleasure." Your <<breasts>> cool as semen slides down your body.
			<br><br>
			<<chestejacstat>><<ejacstat>><<set $hygiene += 500>><<set $chestsemen += 1>>
		<<case 7>>
			<<He>> puts <<his>> hand behind your neck, mashing your face against <<his>> body and bears down on your <<breasts>>; semen shoots between and covers your <<if $position is "missionary">>face<<faceejacstat>><<ejacstat>><<set $hygiene += 500>><<set $facesemen += 1>><<else>>stomach<<tummyejacstat>><<ejacstat>><<set $hygiene += 500>><<set $tummysemen += 1>><</if>> as you gasp for air. "You're mine to use for my pleasure."
			<br><br>
			<<chestejacstat>><<ejacstat>><<set $hygiene += 500>><<set $chestsemen += 1>>
		<</switch>>
	<<elseif $NPCList[0].penis is "mouthentrance">>
		<<switch random(1, 7)>>
		<<case 1 2 3>>
			<<He>> grabs your chin with one hand and strokes <<his>> cock with the other, ejaculating onto your face. "I hope you understand who the master is."
			<br><br>
			<<faceejacstat>><<ejacstat>><<set $hygiene += 500>><<set $facesemen += 1>>
		<<case 4 5 6>>
			<<He>> strokes <<his>> cock and holding you by the ears, quietly ejaculates onto your face. Warm cums drips down your forehead and nose. "Such a messy student; just look at you."
			<br><br>
			<<faceejacstat>><<ejacstat>><<set $hygiene += 500>><<set $facesemen += 1>>
		<<case 7>>
			<<He>> grasps your hair tightly in <<his>> fist, stroking <<his>> cock while aiming straight at your mouth. <span class="pink">You splutter and gag as thick ropes of cum push past your clenched lips and into your mouth.</span> "You need more practise swallowing, you sloppy hoodlum."
			<br><br>
			<<faceejacstat>><<ejacstat>><<set $hygiene += 500>><<set $facesemen += 1>>
			<<oralejacstat>><<ejacstat>><<set $hunger -= 200>><<set $thirst -= 200>><<set $mouthsemen += 1>>
		<</switch>>
	<<elseif $NPCList[0].penis is "mouthimminent">>
		<<switch random(1, 7)>>
		<<case 1 2 3>>
			<<He>> grips hair at the nape your neck, ejaculating onto your lips as you barely brush against the tip of <<his>> penis.
			<br><br>
			<<faceejacstat>><<ejacstat>><<set $hygiene += 500>><<set $facesemen += 1>>
		<<case 4 5 6>>
			<<He>> brushes <<his>> cock against your face, causing <<him>> to ejaculate early. Cums drips down your lips and chin; frustrated, <<he>> wipes the cum off your face and shoves it in your mouth.
			<br><br>
			<<oralejacstat>><<ejacstat>><<set $hunger -= 200>><<set $thirst -= 200>><<set $mouthsemen += 1>>
		<<case 7>>
			<<He>> grasps your hair but in <<his>> excitement cums before <<he>> can enter your mouth. Thick ropes of cum cover your cheeks, chin, and into your waiting mouth. <<He>> looks frustrated.
			<br><br>
			<<faceejacstat>><<ejacstat>><<set $hygiene += 500>><<set $facesemen += 1>>
			<<oralejacstat>><<ejacstat>><<set $hunger -= 200>><<set $thirst -= 200>><<set $mouthsemen += 1>>
		<</switch>>
	<<elseif $NPCList[0].penis is "mouth">>
		<<switch random(1, 7)>>
		<<case 1 2 3>>
			<<He>> grabs you under the chin with one hand and by your hair with the other, shoving <<his>> cock down your throat as <<he>> cums. You gag and retch as unwanted semen streams down your throat, forcing you to swallow.
			<br><br>
			<<oralejacstat>><<ejacstat>><<set $hunger -= 200>><<set $thirst -= 200>><<set $mouthsemen += 1>>
		<<case 4 5 6>>
			<<He>> grabs you by the throat in one hand and grasps the base of <<his>> cock in the other, quietly ejaculating into your mouth. You gag as cum fills your mouth and drips down your throat.
			<<oralejacstat>><<ejacstat>><<set $hunger -= 200>><<set $thirst -= 200>><<set $mouthsemen += 1>>
			<<gstress>><<gtrauma>><<gpain>><<violence 3>><<bruise neck>><<hitstat>>
			<br><br>
		<<case 7>>
			<<He>> grasps your hair by the temples, wildly thrusting <<his>> cock down your throat as <<he>> cums. <span class="pink">You whimper as semen streams down your throat,</span> fills your mouth and covers your face as <<he>> flails. "Don't forget that you remain enrolled here at my pleasure."
			<<faceejacstat>><<ejacstat>><<set $hygiene += 500>><<set $facesemen += 1>>
			<<oralejacstat>><<ejacstat>><<set $hunger -= 200>><<set $thirst -= 200>><<set $mouthsemen += 1>>
			<<gstress>><<gtrauma>><<gpain>><<violence 3>><<bruise neck>><<hitstat>>
			<br><br>
		<</switch>>
	<<elseif $NPCList[0].penis is "feet">>
		<<switch random(1, 7)>>
		<<case 1 2 3>>
			<<He>> pushes your feet together and groans as <<he>> cums. Ejaculate covers your feet.
			<br><br>
			<<feetejacstat>><<ejacstat>><<set $hygiene += 500>><<set $feetsemen += 1>>
		<<case 4 5 6>>
			<<He>> quietly cums on your feet, slickening them with semen.
			<br><br>
			<<feetejacstat>><<ejacstat>><<set $hygiene += 500>><<set $feetsemen += 1>>
		<<case 7>>
			<<He>> grunts and thrusts <<his>> cock between your feet as <<he>> cums, splattering cum on your feet and legs in the process. "Such a filthy wretch."
			<br><br>
			<<feetejacstat>><<ejacstat>><<set $hygiene += 500>><<set $feetsemen += 1>>
			<<thighejacstat>><<ejacstat>><<set $hygiene += 500>><<set $thighsemen += 1>>
		<</switch>>
	<<elseif $NPCList[0].penis is "leftarm" and $NPCList[0].penis is "rightarm">>
		<<switch random(1, 7)>>
		<<case 1 2 3>>
			<<He>> groans as <<he>> cums, penis pulsing in your hands, covering them both in cum.
			<br><br>
			<<handejacstat>><<ejacstat>><<set $hygiene += 500>><<set $leftarmsemen += 1>><<set $rightarmsemen += 1>>
		<<case 4 5 6>>
			<<He>> quietly cums on your hands, slickening them with semen.
			<br><br>
			<<handejacstat>><<ejacstat>><<set $hygiene += 500>><<set $leftarmsemen += 1>><<set $rightarmsemen += 1>>
		<<case 7>>
			<<He>> spasms and moans, shooting thick streams of cum. You are so intent on your work you don't notice <<his>> penis is aimed at your face, which is splattered with cum in the process. "Such a messy <<girlstop>>"
			<br><br>
			<<handejacstat>><<ejacstat>><<set $hygiene += 500>><<set $leftarmsemen += 1>><<set $rightarmsemen += 1>>
			<<faceejacstat>><<ejacstat>><<set $hygiene += 500>><<set $facesemen += 1>>
		<</switch>>
	<<elseif $NPCList[0].penis is "leftarm">>
		<<switch random(1, 7)>>
		<<case 1 2 3>>
			<<He>> groans as <<he>> cums, penis sliding hotly in your left hand and covering it with cum. Grabbing your hand by the wrist, <<he>> forces it into your mouth so you can taste <<himstop>>
			<br><br>
			<<handejacstat>><<ejacstat>><<set $hygiene += 500>><<set $leftarmsemen += 1>>
		<<case 3 4>>
			<<He>> spasms and moans, shooting thick streams of cum. You are so intent on keeping <<him>> occupied you don't notice <<his>> penis is aimed at your face, which is splattered with cum in the process.
			<br><br>
			<<handejacstat>><<ejacstat>><<set $hygiene += 500>><<set $leftarmsemen += 1>>
			<<faceejacstat>><<ejacstat>><<set $hygiene += 500>><<set $facesemen += 1>>
		<<case 6 7>>
			<<He>> spasms and moans, shooting thick streams of cum and splattering your chest in the process. "I need to train you to control my cock better."
			<br><br>
			<<handejacstat>><<ejacstat>><<set $hygiene += 500>><<set $leftarmsemen += 1>>
			<<chestejacstat>><<ejacstat>><<set $hygiene += 500>><<set $chestsemen += 1>>
		<</switch>>
	<<elseif $NPCList[0].penis is "rightarm">>
		<<switch random(1, 7)>>
		<<case 1 2 3>>
			<<He>> groans as your work <<his>> shaft with your right hand, cumming as you give <<him>> a final squeeze; <<he>> flicks <<his>> cock clean on your face.
			<br><br>
			<<handejacstat>><<ejacstat>><<set $hygiene += 500>><<set $rightarmsemen += 1>>
		<<case 4 5>>
			<<He>> spasms and moans, shooting thick streams of cum. You are so intent on keeping <<him>> occupied you don't notice <<his>> penis is aimed at your chest, which is splattered with cum in the process. "You're a mess; go clean up."
			<br><br>
			<<chestejacstat>><<ejacstat>><<set $hygiene += 500>><<set $chestsemen += 1>>
			<<handejacstat>><<ejacstat>><<set $hygiene += 500>><<set $rightarmsemen += 1>>
		<<case 6 7>>
			<<He>> grunts and shoots thick ropes of semen onto your hand, making an impressive mess. "Disgusting. Go clean yourself up."
			<br><br>
			<<handejacstat>><<ejacstat>><<set $hygiene += 500>><<set $rightarmsemen += 1>>
			<<oralejacstat>><<ejacstat>><<set $hunger -= 200>><<set $thirst -= 200>><<set $mouthsemen += 1>>
		<</switch>>
	<<elseif $NPCList[0].penis is 0>>
		<<switch random(1, 5)>>
		<<case 1>>
			<<He>> groans as <<he>> works <<his>> shaft and, giving <<his>> cock a final squeeze, ejaculates onto your tummy. "Don't forget you remain enrolled here at my pleasure."
			<br><br>
			<<tummyejacstat>><<ejacstat>><<set $hygiene += 500>><<set $tummysemen += 1>>
		<<case 2>>
			<<He>> rapidly rubs <<his>> cock and aims at your face, covering it with semen. "Your proper place is on your knees servicing my cock; don't forget it."
			<br><br>
			<<faceejacstat>><<ejacstat>><<set $hygiene += 500>><<set $facesemen += 1>>
		<<case 3>>
			<<He>> strokes <<his>> penis and, aiming at your ass, ejaculates on your bottom. "A gift to remember me by."
			<br><br>
			<<bottomejacstat>><<ejacstat>><<set $hygiene += 500>><<set $bottomsemen += 1>>
		<<case 4>>
			<<He>> strokes <<his>> penis and moans, ejaculating on your <<breastsstop>> "Such a messy pupil. Off you go, clean yourself up."
			<br><br>
			<<chestejacstat>><<ejacstat>><<set $hygiene += 500>><<set $chestsemen += 1>>
		<<case 5>>
			<<He>> moans and rubs <<his>> cock wildly, sending cum flying all over your body; <<he>> wipes <<his>> penis clean in your hair.
			<br><br>
			<<chestejacstat>><<ejacstat>><<set $hygiene += 500>><<set $chestsemen += 1>>
			<<tummyejacstat>><<ejacstat>><<set $hygiene += 500>><<set $tummysemen += 1>>
			<<hairejacstat>><<ejacstat>><<set $hygiene += 500>><<set $hairsemen += 1>>
		<</switch>>
	<<elseif $NPCList[0].penis is "otheranus">>
		<<switch random(1, 7)>>
		<<case 1 2 3>>
			<<He>> groans as you fuck <<his>> ass; <<he>> catches <<his>> ejaculate in <<his>> hand and wipes it on your face. "I hope you're learning who owns you."
			<br><br>
			<<faceejacstat>><<ejacstat>><<set $hygiene += 500>><<set $facesemen += 1>>
		<<case 4 5>>
			<<He>> moans as you pound <<his>> ass, and ejaculates on the ground.
			<br><br>
		<<case 6 7>>
			<<He>> sighs as <<he>> ejaculates onto <<his>> own chest.
			<br><br>
		<</switch>>
	<<elseif $NPCList[0].penis is "otheranusfrot" or $NPCList[0].penis is "otheranusentrance" or $NPCList[0].penis is "otheranusimminent" and $worn.genitals.type.includes("chastity")>>
		<<He>> tenses as <<he>> cums, ejaculating over your $worn.genitals.name. "Whoever put you in that had the right idea," <<he>> gasps. "If only I had a key."
		<br><br>
	<<elseif $NPCList[0].penis is "otheranusfrot" or $NPCList[0].penis is "otheranusentrance" or $NPCList[0].penis is "otheranusimminent">>
		<<switch random(1, 7)>>
		<<case 1 2 3>>
			<<He>> noisily cums as you fuck <<his>> cheeks, digging <<his>> nails into your ass from behind and grinding your cock against <<his>> ass to finish. "I expect you to fuck me properly next time or you'll be punished."
			<br><br>
		<<case 4 5>>
			<<He>> moans as you rub against <<his>> anus, and ejaculates on the ground; <<he>> seems disappointed.
			<br><br>
		<<case 6 7>>
			<<He>> sighs as <<he>> ejaculates onto <<his>> own chest. "That was fine, but next time you're bottom. Be ready."
			<br><br>
		<</switch>>
	<!-- Special case male PC being orally serviced by male NPC with no other contact -->
	<<elseif $NPCList[0].mouth is "penis">>
		<<switch random(1, 7)>>
		<<case 1 2 3>>
			<<He>> cums as you fuck <<his>> mouth; <<he>> catches <<his>> semen and rubs it into your stomach as <<he>> pushes you away. "I'm done now; off with you."
			<br><br>
			<<tummyejacstat>><<ejacstat>><<set $hygiene += 500>><<set $tummysemen += 1>>
		<<case 4 5>>
			<<He>> cums on the ground as you fuck <<his>> mouth; <<he>> bites your cock, stopping you abruptly. "Enought, I'm finished."
			<br><br>
		<<case 6 7>>
			<<He>> grabs you by
			<<if $player.ballsExist>>the balls<<elseif $vaginaexist is 1>>the pussy<</if>>
			and painfully drives your cock into <<his>> throat; <<he>> ejaculates on <<his>> chest as <<he>> throats your cock.
			<br><br>
		<</switch>>
	<<elseif $NPCList[0].penis is "othermouth">>
		<<He>> shakes with arousal as <<he>> cums, wiping <<his>> wet face clean on your body.
		<br><br>
	<</if>>
<</if>>

<!-- Finishing moves for consensual with low anger or non-consensual with damage or high anger -->
<<if $consensual is 1 and $enemyanger lte 0>>

	<<switch random(1, 5)>>
	<<case 1 2>>
		<<He>> absently strokes you, <span class="green">making you feel warm inside.</span> "Such a willing pupil; I've much more to teach you."
		<<lstress>><<ltrauma>><<lpain>><<violence -3>>
		<br><br>
	<<case 3 4>>
		<<He>> strokes your hair, <span class="green">making you feel warm inside.</span> "I think you'll benefit from my attention."
		<<lstress>><<ltrauma>><<lpain>><<violence -3>>
		<br><br>
	<<case 5>>
		<<He>> brushes your cheek with <<his>> hand. "Such a <<if $player.gender_appearance is "m">>handsome<<else>>beautiful<</if>> student." <span class="green">Your face flushes with pleasure.</span>
		<<lstress>><<ltrauma>><<lpain>><<violence -3>>
		<br><br>
	<</switch>>

<<elseif $consensual is 0 and $enemyhealth lte ($enemyhealthmax / 10) * 7.5>>

	<<He>> <span class="red">angrily lashes your ass and thighs with <<his>> belt; you scream in pain, knees buckling under you.</span> "I expect your acquiescence. Fight with me like that and you can expect retribution."
	<<gstress>><<gtrauma>><<gpain>><<violence 6>>
	<br><br>

<<elseif $consensual is 0 and $enemyhealth lte ($enemyhealthmax / 10) * 8.5>>

	<<He>> pins your arms back and <span class="pink">spanks your ass repeatedly as you writhe in pain.</span> "I expect your submission to me; fighting me is unacceptable."
	<<gstress>><<gtrauma>><<gpain>><<violence 3>>
	<br><br>

<<elseif $consensual is 0 and $enemyhealth lte ($enemyhealthmax / 10) * 9.5>>

	<<He>> <span class="pink">slaps you across the ass.</span> "I expect obedience, not hostility."
	<<gstress>><<gtrauma>><<gpain>><<violence 2>>
	<br><br>

<</if>>

<</nobr>><</widget>>